#FIG 3.2
Landscape
Center
Inches
Letter
100.00
Single
-2
1200 2
0 32 #000000
0 33 #040404
0 34 #080808
0 35 #0c0c0c
0 36 #101010
0 37 #141414
0 38 #181818
0 39 #1c1c1c
0 40 #202020
0 41 #242424
0 42 #282828
0 43 #2d2d2d
0 44 #313131
0 45 #353535
0 46 #393939
0 47 #3d3d3d
0 48 #414141
0 49 #454545
0 50 #494949
0 51 #4d4d4d
0 52 #515151
0 53 #555555
0 54 #595959
0 55 #5d5d5d
0 56 #616161
0 57 #656565
0 58 #696969
0 59 #6d6d6d
0 60 #717171
0 61 #757575
0 62 #797979
0 63 #7d7d7d
0 64 #828282
0 65 #868686
0 66 #8a8a8a
0 67 #8e8e8e
0 68 #929292
0 69 #969696
0 70 #9a9a9a
0 71 #9e9e9e
0 72 #a2a2a2
0 73 #a6a6a6
0 74 #aaaaaa
0 75 #aeaeae
0 76 #b2b2b2
0 77 #b6b6b6
0 78 #bababa
0 79 #bebebe
0 80 #c2c2c2
0 81 #c6c6c6
0 82 #cacaca
0 83 #cecece
0 84 #d2d2d2
0 85 #d7d7d7
0 86 #dbdbdb
0 87 #dfdfdf
0 88 #e3e3e3
0 89 #e7e7e7
0 90 #ebebeb
0 91 #efefef
0 92 #f3f3f3
0 93 #f7f7f7
0 94 #fbfbfb
0 95 #ffffff
2 3 0 0 -1 -1 10 0 20     0.000 0 0 0 0 0 5
	 2448 7370 2448 2090 9888 2090 9888 7370 2448 7370
2 1 0 1 -1 -1 10 0 -1     0.000 0 0 0 0 0 5
	 2448 2090 2448 7370 9888 7370 9888 2090 2448 2090
4 1 -1 0 -1 0 10.000  0.000 4 125.000 3600.000 6168 1964 Random samples from the posterior of component 3\001
2 1 0 1 -1 -1 10 0 -1     0.000 0 0 0 0 0 1000
	 2448 4591 2452 4591 2455 4591 2459 4591 2463 4590 2467 4590
	 2470 4589 2474 4588 2478 4588 2481 4587 2485 4585 2489 4584
	 2493 4583 2496 4582 2500 4580 2504 4579 2508 4577 2511 4575
	 2515 4573 2519 4571 2522 4569 2526 4567 2530 4565 2534 4563
	 2537 4561 2541 4558 2545 4556 2548 4553 2552 4551 2556 4548
	 2560 4546 2563 4543 2567 4540 2571 4538 2575 4535 2578 4532
	 2582 4529 2586 4527 2589 4524 2593 4521 2597 4518 2601 4516
	 2604 4513 2608 4510 2612 4507 2615 4505 2619 4502 2623 4500
	 2627 4497 2630 4494 2634 4492 2638 4490 2642 4487 2645 4485
	 2649 4483 2653 4481 2656 4479 2660 4477 2664 4475 2668 4473
	 2671 4471 2675 4470 2679 4468 2682 4467 2686 4465 2690 4464
	 2694 4463 2697 4462 2701 4461 2705 4460 2709 4460 2712 4459
	 2716 4458 2720 4458 2723 4458 2727 4458 2731 4458 2735 4458
	 2738 4458 2742 4459 2746 4459 2749 4460 2753 4460 2757 4461
	 2761 4462 2764 4463 2768 4464 2772 4466 2776 4467 2779 4468
	 2783 4470 2787 4472 2790 4473 2794 4475 2798 4477 2802 4479
	 2805 4482 2809 4484 2813 4486 2816 4489 2820 4491 2824 4494
	 2828 4496 2831 4499 2835 4502 2839 4504 2843 4507 2846 4510
	 2850 4513 2854 4516 2857 4519 2861 4522 2865 4525 2869 4528
	 2872 4531 2876 4535 2880 4538 2883 4541 2887 4544 2891 4547
	 2895 4550 2898 4553 2902 4556 2906 4559 2910 4562 2913 4565
	 2917 4568 2921 4571 2924 4574 2928 4577 2932 4580 2936 4582
	 2939 4585 2943 4588 2947 4590 2950 4593 2954 4595 2958 4597
	 2962 4599 2965 4601 2969 4603 2973 4605 2977 4607 2980 4609
	 2984 4610 2988 4612 2991 4613 2995 4614 2999 4615 3003 4616
	 3006 4617 3010 4618 3014 4618 3017 4619 3021 4619 3025 4620
	 3029 4620 3032 4620 3036 4619 3040 4619 3043 4619 3047 4618
	 3051 4617 3055 4616 3058 4615 3062 4614 3066 4613 3070 4611
	 3073 4610 3077 4608 3081 4606 3084 4604 3088 4602 3092 4599
	 3096 4597 3099 4594 3103 4592 3107 4589 3110 4586 3114 4583
	 3118 4579 3122 4576 3125 4572 3129 4569 3133 4565 3137 4561
	 3140 4557 3144 4553 3148 4548 3151 4544 3155 4540 3159 4535
	 3163 4530 3166 4525 3170 4520 3174 4515 3177 4510 3181 4505
	 3185 4500 3189 4495 3192 4489 3196 4484 3200 4478 3204 4472
	 3207 4467 3211 4461 3215 4455 3218 4449 3222 4443 3226 4437
	 3230 4431 3233 4425 3237 4419 3241 4413 3244 4406 3248 4400
	 3252 4394 3256 4388 3259 4382 3263 4375 3267 4369 3271 4363
	 3274 4357 3278 4351 3282 4344 3285 4338 3289 4332 3293 4326
	 3297 4320 3300 4314 3304 4308 3308 4302 3311 4296 3315 4291
	 3319 4285 3323 4279 3326 4274 3330 4268 3334 4263 3338 4258
	 3341 4252 3345 4247 3349 4242 3352 4237 3356 4232 3360 4228
	 3364 4223 3367 4219 3371 4214 3375 4210 3378 4206 3382 4202
	 3386 4198 3390 4195 3393 4191 3397 4188 3401 4184 3405 4181
	 3408 4178 3412 4176 3416 4173 3419 4171 3423 4168 3427 4166
	 3431 4164 3434 4162 3438 4161 3442 4159 3445 4158 3449 4157
	 3453 4156 3457 4155 3460 4154 3464 4154 3468 4153 3472 4153
	 3475 4153 3479 4153 3483 4153 3486 4154 3490 4155 3494 4155
	 3498 4156 3501 4157 3505 4159 3509 4160 3512 4161 3516 4163
	 3520 4165 3524 4167 3527 4169 3531 4171 3535 4173 3539 4176
	 3542 4178 3546 4181 3550 4184 3553 4186 3557 4189 3561 4192
	 3565 4195 3568 4199 3572 4202 3576 4205 3579 4208 3583 4212
	 3587 4215 3591 4219 3594 4222 3598 4226 3602 4229 3605 4233
	 3609 4236 3613 4240 3617 4243 3620 4247 3624 4250 3628 4254
	 3632 4257 3635 4261 3639 4264 3643 4267 3646 4271 3650 4274
	 3654 4277 3658 4280 3661 4282 3665 4285 3669 4288 3672 4290
	 3676 4293 3680 4295 3684 4297 3687 4299 3691 4301 3695 4302
	 3699 4304 3702 4305 3706 4306 3710 4307 3713 4308 3717 4308
	 3721 4309 3725 4309 3728 4309 3732 4309 3736 4308 3739 4307
	 3743 4306 3747 4305 3751 4304 3754 4302 3758 4300 3762 4298
	 3766 4296 3769 4293 3773 4290 3777 4287 3780 4284 3784 4280
	 3788 4276 3792 4272 3795 4268 3799 4263 3803 4258 3806 4253
	 3810 4248 3814 4242 3818 4237 3821 4231 3825 4224 3829 4218
	 3833 4211 3836 4204 3840 4197 3844 4189 3847 4181 3851 4174
	 3855 4165 3859 4157 3862 4149 3866 4140 3870 4131 3873 4122
	 3877 4113 3881 4103 3885 4094 3888 4084 3892 4074 3896 4064
	 3900 4054 3903 4044 3907 4034 3911 4023 3914 4013 3918 4002
	 3922 3991 3926 3980 3929 3969 3933 3959 3937 3948 3940 3936
	 3944 3925 3948 3914 3952 3903 3955 3892 3959 3881 3963 3870
	 3967 3859 3970 3848 3974 3837 3978 3826 3981 3815 3985 3804
	 3989 3794 3993 3783 3996 3772 4000 3762 4004 3752 4007 3742
	 4011 3731 4015 3721 4019 3712 4022 3702 4026 3692 4030 3683
	 4034 3674 4037 3665 4041 3656 4045 3647 4048 3639 4052 3631
	 4056 3623 4060 3615 4063 3607 4067 3600 4071 3593 4074 3586
	 4078 3579 4082 3573 4086 3567 4089 3561 4093 3555 4097 3549
	 4101 3544 4104 3539 4108 3534 4112 3530 4115 3526 4119 3522
	 4123 3518 4127 3515 4130 3511 4134 3509 4138 3506 4141 3503
	 4145 3501 4149 3499 4153 3498 4156 3496 4160 3495 4164 3494
	 4167 3493 4171 3493 4175 3493 4179 3493 4182 3493 4186 3493
	 4190 3494 4194 3495 4197 3496 4201 3497 4205 3498 4208 3500
	 4212 3502 4216 3504 4220 3506 4223 3508 4227 3510 4231 3513
	 4234 3516 4238 3518 4242 3521 4246 3524 4249 3528 4253 3531
	 4257 3534 4261 3538 4264 3541 4268 3545 4272 3549 4275 3552
	 4279 3556 4283 3560 4287 3564 4290 3568 4294 3571 4298 3575
	 4301 3579 4305 3583 4309 3587 4313 3591 4316 3595 4320 3598
	 4324 3602 4328 3606 4331 3610 4335 3613 4339 3617 4342 3620
	 4346 3623 4350 3627 4354 3630 4357 3633 4361 3636 4365 3639
	 4368 3641 4372 3644 4376 3646 4380 3649 4383 3651 4387 3653
	 4391 3655 4395 3656 4398 3658 4402 3660 4406 3661 4409 3662
	 4413 3663 4417 3664 4421 3664 4424 3665 4428 3665 4432 3665
	 4435 3665 4439 3665 4443 3665 4447 3664 4450 3664 4454 3663
	 4458 3662 4462 3661 4465 3659 4469 3658 4473 3656 4476 3654
	 4480 3652 4484 3650 4488 3648 4491 3646 4495 3643 4499 3640
	 4502 3637 4506 3634 4510 3631 4514 3628 4517 3625 4521 3621
	 4525 3618 4529 3614 4532 3610 4536 3606 4540 3602 4543 3598
	 4547 3594 4551 3589 4555 3585 4558 3580 4562 3576 4566 3571
	 4569 3566 4573 3562 4577 3557 4581 3552 4584 3547 4588 3542
	 4592 3537 4596 3532 4599 3527 4603 3521 4607 3516 4610 3511
	 4614 3506 4618 3500 4622 3495 4625 3490 4629 3484 4633 3479
	 4636 3474 4640 3468 4644 3463 4648 3458 4651 3452 4655 3447
	 4659 3441 4663 3436 4666 3430 4670 3425 4674 3419 4677 3414
	 4681 3408 4685 3403 4689 3397 4692 3392 4696 3386 4700 3381
	 4703 3375 4707 3370 4711 3364 4715 3359 4718 3353 4722 3348
	 4726 3342 4730 3336 4733 3331 4737 3325 4741 3319 4744 3313
	 4748 3308 4752 3302 4756 3296 4759 3290 4763 3284 4767 3278
	 4770 3272 4774 3266 4778 3260 4782 3254 4785 3247 4789 3241
	 4793 3235 4796 3228 4800 3222 4804 3215 4808 3209 4811 3202
	 4815 3195 4819 3189 4823 3182 4826 3175 4830 3168 4834 3161
	 4837 3154 4841 3147 4845 3139 4849 3132 4852 3125 4856 3117
	 4860 3110 4863 3102 4867 3095 4871 3087 4875 3080 4878 3072
	 4882 3064 4886 3057 4890 3049 4893 3041 4897 3033 4901 3025
	 4904 3018 4908 3010 4912 3002 4916 2994 4919 2986 4923 2978
	 4927 2971 4930 2963 4934 2955 4938 2948 4942 2940 4945 2932
	 4949 2925 4953 2917 4957 2910 4960 2903 4964 2896 4968 2889
	 4971 2882 4975 2875 4979 2868 4983 2862 4986 2855 4990 2849
	 4994 2843 4997 2837 5001 2831 5005 2826 5009 2820 5012 2815
	 5016 2810 5020 2806 5024 2801 5027 2797 5031 2793 5035 2789
	 5038 2786 5042 2782 5046 2780 5050 2777 5053 2775 5057 2773
	 5061 2771 5064 2769 5068 2768 5072 2768 5076 2767 5079 2767
	 5083 2767 5087 2768 5091 2769 5094 2770 5098 2772 5102 2774
	 5105 2777 5109 2780 5113 2783 5117 2787 5120 2791 5124 2795
	 5128 2800 5131 2805 5135 2811 5139 2817 5143 2823 5146 2830
	 5150 2837 5154 2845 5158 2853 5161 2861 5165 2870 5169 2880
	 5172 2889 5176 2899 5180 2910 5184 2921 5187 2932 5191 2944
	 5195 2956 5198 2968 5202 2981 5206 2994 5210 3008 5213 3022
	 5217 3036 5221 3050 5225 3066 5228 3081 5232 3097 5236 3113
	 5239 3129 5243 3146 5247 3163 5251 3180 5254 3197 5258 3215
	 5262 3233 5265 3252 5269 3271 5273 3290 5277 3309 5280 3328
	 5284 3348 5288 3368 5292 3388 5295 3408 5299 3429 5303 3449
	 5306 3470 5310 3491 5314 3512 5318 3533 5321 3555 5325 3576
	 5329 3598 5332 3620 5336 3642 5340 3664 5344 3686 5347 3708
	 5351 3730 5355 3752 5358 3774 5362 3796 5366 3818 5370 3841
	 5373 3863 5377 3885 5381 3907 5385 3929 5388 3951 5392 3973
	 5396 3995 5399 4017 5403 4039 5407 4060 5411 4082 5414 4103
	 5418 4125 5422 4146 5425 4167 5429 4188 5433 4208 5437 4229
	 5440 4249 5444 4270 5448 4290 5452 4310 5455 4329 5459 4349
	 5463 4368 5466 4387 5470 4406 5474 4425 5478 4443 5481 4461
	 5485 4479 5489 4497 5492 4514 5496 4532 5500 4549 5504 4565
	 5507 4582 5511 4598 5515 4614 5519 4630 5522 4646 5526 4661
	 5530 4676 5533 4691 5537 4705 5541 4720 5545 4734 5548 4748
	 5552 4761 5556 4774 5559 4787 5563 4800 5567 4813 5571 4825
	 5574 4838 5578 4849 5582 4861 5586 4873 5589 4884 5593 4895
	 5597 4906 5600 4916 5604 4927 5608 4937 5612 4947 5615 4957
	 5619 4967 5623 4976 5626 4986 5630 4995 5634 5004 5638 5013
	 5641 5021 5645 5030 5649 5038 5653 5047 5656 5055 5660 5063
	 5664 5070 5667 5078 5671 5086 5675 5093 5679 5101 5682 5108
	 5686 5115 5690 5122 5693 5129 5697 5136 5701 5143 5705 5149
	 5708 5156 5712 5162 5716 5169 5720 5175 5723 5182 5727 5188
	 5731 5194 5734 5200 5738 5206 5742 5212 5746 5218 5749 5224
	 5753 5229 5757 5235 5760 5241 5764 5246 5768 5252 5772 5257
	 5775 5262 5779 5267 5783 5273 5787 5278 5790 5283 5794 5287
	 5798 5292 5801 5297 5805 5302 5809 5306 5813 5310 5816 5315
	 5820 5319 5824 5323 5827 5327 5831 5331 5835 5334 5839 5338
	 5842 5341 5846 5345 5850 5348 5854 5351 5857 5353 5861 5356
	 5865 5358 5868 5361 5872 5363 5876 5364 5880 5366 5883 5367
	 5887 5369 5891 5370 5894 5370 5898 5371 5902 5371 5906 5371
	 5909 5371 5913 5371 5917 5370 5920 5369 5924 5368 5928 5366
	 5932 5364 5935 5362 5939 5360 5943 5357 5947 5354 5950 5351
	 5954 5348 5958 5344 5961 5340 5965 5335 5969 5330 5973 5325
	 5976 5320 5980 5314 5984 5308 5987 5302 5991 5295 5995 5288
	 5999 5280 6002 5273 6006 5265 6010 5256 6014 5248 6017 5239
	 6021 5230 6025 5220 6028 5210 6032 5200 6036 5189 6040 5179
	 6043 5167 6047 5156 6051 5144 6054 5132 6058 5120 6062 5108
	 6066 5095 6069 5082 6073 5069 6077 5055 6081 5041 6084 5027
	 6088 5013 6092 4999 6095 4984 6099 4969 6103 4954 6107 4939
	 6110 4924 6114 4908 6118 4892 6121 4876 6125 4861 6129 4844
	 6133 4828 6136 4812 6140 4796 6144 4779 6148 4763 6151 4746
	 6155 4729 6159 4713 6162 4696 6166 4679
2 1 0 1 -1 -1 10 0 -1     0.000 0 0 0 0 0 1000
	 6166 4679 6170 4662 6174 4646 6177 4629 6181 4612 6185 4596
	 6188 4579 6192 4562 6196 4546 6200 4530 6203 4513 6207 4497
	 6211 4481 6215 4465 6218 4449 6222 4433 6226 4418 6229 4402
	 6233 4387 6237 4372 6241 4357 6244 4342 6248 4328 6252 4313
	 6255 4299 6259 4285 6263 4271 6267 4258 6270 4245 6274 4232
	 6278 4219 6282 4207 6285 4194 6289 4182 6293 4171 6296 4159
	 6300 4148 6304 4137 6308 4127 6311 4117 6315 4107 6319 4097
	 6322 4088 6326 4079 6330 4070 6334 4062 6337 4054 6341 4046
	 6345 4039 6349 4032 6352 4025 6356 4019 6360 4013 6363 4007
	 6367 4001 6371 3996 6375 3992 6378 3987 6382 3983 6386 3979
	 6389 3976 6393 3972 6397 3969 6401 3967 6404 3965 6408 3963
	 6412 3961 6416 3960 6419 3959 6423 3958 6427 3957 6430 3957
	 6434 3957 6438 3958 6442 3958 6445 3959 6449 3961 6453 3962
	 6456 3964 6460 3966 6464 3968 6468 3970 6471 3973 6475 3976
	 6479 3979 6482 3982 6486 3986 6490 3989 6494 3993 6497 3997
	 6501 4002 6505 4006 6509 4011 6512 4015 6516 4020 6520 4025
	 6523 4030 6527 4036 6531 4041 6535 4047 6538 4052 6542 4058
	 6546 4064 6549 4070 6553 4076 6557 4082 6561 4088 6564 4094
	 6568 4100 6572 4106 6576 4112 6579 4118 6583 4125 6587 4131
	 6590 4137 6594 4143 6598 4150 6602 4156 6605 4162 6609 4168
	 6613 4174 6616 4180 6620 4185 6624 4191 6628 4197 6631 4203
	 6635 4208 6639 4213 6643 4219 6646 4224 6650 4229 6654 4234
	 6657 4238 6661 4243 6665 4247 6669 4252 6672 4256 6676 4260
	 6680 4264 6683 4267 6687 4271 6691 4274 6695 4277 6698 4280
	 6702 4282 6706 4285 6710 4287 6713 4289 6717 4291 6721 4292
	 6724 4294 6728 4295 6732 4296 6736 4297 6739 4297 6743 4297
	 6747 4297 6750 4297 6754 4297 6758 4296 6762 4295 6765 4294
	 6769 4293 6773 4291 6777 4289 6780 4287 6784 4285 6788 4283
	 6791 4280 6795 4277 6799 4274 6803 4270 6806 4267 6810 4263
	 6814 4259 6817 4255 6821 4250 6825 4246 6829 4241 6832 4236
	 6836 4231 6840 4226 6844 4220 6847 4214 6851 4209 6855 4203
	 6858 4196 6862 4190 6866 4184 6870 4177 6873 4170 6877 4164
	 6881 4157 6884 4150 6888 4142 6892 4135 6896 4128 6899 4120
	 6903 4113 6907 4105 6911 4097 6914 4090 6918 4082 6922 4074
	 6925 4066 6929 4058 6933 4050 6937 4042 6940 4034 6944 4026
	 6948 4018 6951 4010 6955 4002 6959 3994 6963 3986 6966 3978
	 6970 3970 6974 3962 6978 3954 6981 3946 6985 3938 6989 3931
	 6992 3923 6996 3915 7000 3908 7004 3900 7007 3893 7011 3885
	 7015 3878 7018 3871 7022 3864 7026 3857 7030 3850 7033 3843
	 7037 3836 7041 3829 7044 3823 7048 3816 7052 3810 7056 3804
	 7059 3797 7063 3791 7067 3785 7071 3780 7074 3774 7078 3768
	 7082 3763 7085 3757 7089 3752 7093 3747 7097 3742 7100 3737
	 7104 3732 7108 3727 7111 3723 7115 3718 7119 3714 7123 3709
	 7126 3705 7130 3701 7134 3697 7138 3693 7141 3689 7145 3686
	 7149 3682 7152 3678 7156 3675 7160 3672 7164 3668 7167 3665
	 7171 3662 7175 3659 7178 3656 7182 3653 7186 3650 7190 3647
	 7193 3644 7197 3641 7201 3639 7205 3636 7208 3633 7212 3631
	 7216 3628 7219 3626 7223 3623 7227 3621 7231 3618 7234 3616
	 7238 3613 7242 3611 7245 3608 7249 3606 7253 3604 7257 3601
	 7260 3599 7264 3596 7268 3594 7272 3592 7275 3589 7279 3587
	 7283 3584 7286 3582 7290 3579 7294 3577 7298 3574 7301 3572
	 7305 3569 7309 3567 7312 3564 7316 3561 7320 3559 7324 3556
	 7327 3553 7331 3550 7335 3547 7339 3544 7342 3541 7346 3538
	 7350 3535 7353 3532 7357 3529 7361 3526 7365 3523 7368 3520
	 7372 3516 7376 3513 7379 3510 7383 3506 7387 3503 7391 3499
	 7394 3495 7398 3492 7402 3488 7406 3485 7409 3481 7413 3477
	 7417 3473 7420 3469 7424 3466 7428 3462 7432 3458 7435 3454
	 7439 3450 7443 3446 7446 3442 7450 3438 7454 3434 7458 3430
	 7461 3425 7465 3421 7469 3417 7473 3413 7476 3409 7480 3405
	 7484 3400 7487 3396 7491 3392 7495 3388 7499 3383 7502 3379
	 7506 3375 7510 3371 7513 3367 7517 3362 7521 3358 7525 3354
	 7528 3350 7532 3346 7536 3342 7540 3338 7543 3334 7547 3330
	 7551 3326 7554 3322 7558 3318 7562 3314 7566 3310 7569 3306
	 7573 3303 7577 3299 7580 3295 7584 3292 7588 3288 7592 3285
	 7595 3282 7599 3278 7603 3275 7606 3272 7610 3269 7614 3266
	 7618 3263 7621 3260 7625 3257 7629 3254 7633 3252 7636 3249
	 7640 3247 7644 3245 7647 3243 7651 3240 7655 3238 7659 3237
	 7662 3235 7666 3233 7670 3231 7673 3230 7677 3229 7681 3228
	 7685 3226 7688 3225 7692 3225 7696 3224 7700 3223 7703 3223
	 7707 3222 7711 3222 7714 3222 7718 3222 7722 3222 7726 3223
	 7729 3223 7733 3224 7737 3224 7740 3225 7744 3226 7748 3228
	 7752 3229 7755 3230 7759 3232 7763 3234 7767 3236 7770 3238
	 7774 3240 7778 3242 7781 3245 7785 3248 7789 3250 7793 3253
	 7796 3257 7800 3260 7804 3263 7807 3267 7811 3271 7815 3275
	 7819 3279 7822 3283 7826 3288 7830 3292 7834 3297 7837 3302
	 7841 3307 7845 3312 7848 3318 7852 3323 7856 3329 7860 3335
	 7863 3341 7867 3347 7871 3354 7874 3360 7878 3367 7882 3374
	 7886 3381 7889 3388 7893 3396 7897 3404 7901 3411 7904 3420
	 7908 3428 7912 3436 7915 3445 7919 3453 7923 3462 7927 3472
	 7930 3481 7934 3490 7938 3500 7941 3510 7945 3520 7949 3530
	 7953 3541 7956 3552 7960 3563 7964 3574 7968 3585 7971 3596
	 7975 3608 7979 3620 7982 3632 7986 3645 7990 3657 7994 3670
	 7997 3683 8001 3697 8005 3710 8008 3724 8012 3738 8016 3752
	 8020 3766 8023 3781 8027 3796 8031 3811 8035 3826 8038 3842
	 8042 3858 8046 3874 8049 3890 8053 3907 8057 3923 8061 3940
	 8064 3958 8068 3975 8072 3993 8075 4011 8079 4029 8083 4047
	 8087 4066 8090 4085 8094 4104 8098 4124 8102 4143 8105 4163
	 8109 4183 8113 4203 8116 4224 8120 4244 8124 4265 8128 4286
	 8131 4308 8135 4329 8139 4351 8142 4373 8146 4395 8150 4417
	 8154 4440 8157 4462 8161 4485 8165 4508 8169 4531 8172 4554
	 8176 4577 8180 4601 8183 4624 8187 4648 8191 4672 8195 4696
	 8198 4720 8202 4744 8206 4768 8209 4792 8213 4816 8217 4841
	 8221 4865 8224 4889 8228 4913 8232 4938 8235 4962 8239 4986
	 8243 5011 8247 5035 8250 5059 8254 5083 8258 5107 8262 5131
	 8265 5155 8269 5179 8273 5203 8276 5226 8280 5249 8284 5273
	 8288 5296 8291 5319 8295 5341 8299 5364 8302 5386 8306 5408
	 8310 5430 8314 5452 8317 5473 8321 5494 8325 5515 8329 5535
	 8332 5556 8336 5576 8340 5595 8343 5614 8347 5633 8351 5652
	 8355 5670 8358 5688 8362 5706 8366 5723 8369 5739 8373 5756
	 8377 5772 8381 5787 8384 5802 8388 5817 8392 5831 8396 5845
	 8399 5858 8403 5871 8407 5883 8410 5895 8414 5906 8418 5917
	 8422 5928 8425 5938 8429 5947 8433 5956 8436 5965 8440 5973
	 8444 5980 8448 5987 8451 5993 8455 5999 8459 6005 8463 6010
	 8466 6014 8470 6018 8474 6021 8477 6024 8481 6026 8485 6028
	 8489 6029 8492 6029 8496 6030 8500 6029 8503 6028 8507 6027
	 8511 6025 8515 6022 8518 6019 8522 6016 8526 6012 8530 6007
	 8533 6002 8537 5997 8541 5991 8544 5984 8548 5978 8552 5970
	 8556 5962 8559 5954 8563 5945 8567 5936 8570 5926 8574 5916
	 8578 5905 8582 5894 8585 5882 8589 5870 8593 5858 8597 5845
	 8600 5832 8604 5819 8608 5805 8611 5790 8615 5776 8619 5761
	 8623 5745 8626 5729 8630 5713 8634 5697 8637 5680 8641 5663
	 8645 5646 8649 5628 8652 5610 8656 5592 8660 5573 8664 5554
	 8667 5535 8671 5516 8675 5496 8678 5477 8682 5457 8686 5436
	 8690 5416 8693 5395 8697 5375 8701 5354 8704 5333 8708 5311
	 8712 5290 8716 5268 8719 5247 8723 5225 8727 5203 8731 5181
	 8734 5159 8738 5137 8742 5115 8745 5093 8749 5071 8753 5048
	 8757 5026 8760 5004 8764 4982 8768 4960 8771 4937 8775 4915
	 8779 4893 8783 4871 8786 4849 8790 4827 8794 4805 8797 4784
	 8801 4762 8805 4741 8809 4719 8812 4698 8816 4677 8820 4656
	 8824 4636 8827 4615 8831 4595 8835 4575 8838 4555 8842 4535
	 8846 4516 8850 4497 8853 4478 8857 4459 8861 4441 8864 4423
	 8868 4405 8872 4388 8876 4371 8879 4354 8883 4337 8887 4321
	 8891 4306 8894 4290 8898 4275 8902 4260 8905 4246 8909 4232
	 8913 4219 8917 4205 8920 4193 8924 4180 8928 4168 8931 4157
	 8935 4146 8939 4135 8943 4125 8946 4115 8950 4106 8954 4097
	 8958 4089 8961 4081 8965 4073 8969 4066 8972 4060 8976 4054
	 8980 4048 8984 4043 8987 4038 8991 4034 8995 4030 8998 4027
	 9002 4024 9006 4021 9010 4019 9013 4018 9017 4017 9021 4016
	 9025 4016 9028 4017 9032 4018 9036 4019 9039 4020 9043 4023
	 9047 4025 9051 4028 9054 4031 9058 4035 9062 4039 9065 4044
	 9069 4049 9073 4054 9077 4060 9080 4066 9084 4073 9088 4080
	 9092 4087 9095 4095 9099 4102 9103 4111 9106 4119 9110 4128
	 9114 4137 9118 4146 9121 4156 9125 4166 9129 4176 9132 4187
	 9136 4197 9140 4208 9144 4219 9147 4231 9151 4242 9155 4254
	 9159 4266 9162 4278 9166 4290 9170 4302 9173 4314 9177 4327
	 9181 4340 9185 4352 9188 4365 9192 4378 9196 4391 9199 4404
	 9203 4417 9207 4430 9211 4443 9214 4456 9218 4469 9222 4482
	 9226 4495 9229 4508 9233 4521 9237 4534 9240 4547 9244 4559
	 9248 4572 9252 4585 9255 4597 9259 4609 9263 4622 9266 4634
	 9270 4646 9274 4658 9278 4669 9281 4681 9285 4692 9289 4704
	 9293 4715 9296 4726 9300 4736 9304 4747 9307 4757 9311 4767
	 9315 4777 9319 4787 9322 4796 9326 4805 9330 4814 9333 4823
	 9337 4832 9341 4840 9345 4848 9348 4856 9352 4864 9356 4871
	 9359 4878 9363 4885 9367 4891 9371 4898 9374 4904 9378 4910
	 9382 4915 9386 4921 9389 4926 9393 4930 9397 4935 9400 4939
	 9404 4943 9408 4947 9412 4951 9415 4954 9419 4957 9423 4959
	 9426 4962 9430 4964 9434 4966 9438 4968 9441 4969 9445 4971
	 9449 4972 9453 4972 9456 4973 9460 4973 9464 4973 9467 4973
	 9471 4973 9475 4972 9479 4971 9482 4970 9486 4969 9490 4967
	 9493 4966 9497 4964 9501 4962 9505 4959 9508 4957 9512 4954
	 9516 4951 9520 4948 9523 4945 9527 4942 9531 4938 9534 4934
	 9538 4931 9542 4927 9546 4922 9549 4918 9553 4914 9557 4909
	 9560 4904 9564 4900 9568 4895 9572 4890 9575 4884 9579 4879
	 9583 4874 9587 4868 9590 4863 9594 4857 9598 4851 9601 4845
	 9605 4839 9609 4833 9613 4827 9616 4821 9620 4815 9624 4809
	 9627 4803 9631 4796 9635 4790 9639 4783 9642 4777 9646 4770
	 9650 4764 9654 4758 9657 4751 9661 4744 9665 4738 9668 4731
	 9672 4725 9676 4718 9680 4712 9683 4705 9687 4699 9691 4692
	 9694 4686 9698 4679 9702 4673 9706 4667 9709 4660 9713 4654
	 9717 4648 9721 4641 9724 4635 9728 4629 9732 4623 9735 4617
	 9739 4611 9743 4605 9747 4599 9750 4593 9754 4588 9758 4582
	 9761 4576 9765 4571 9769 4565 9773 4560 9776 4554 9780 4549
	 9784 4544 9788 4539 9791 4534 9795 4529 9799 4524 9802 4519
	 9806 4514 9810 4509 9814 4505 9817 4500 9821 4496 9825 4491
	 9828 4487 9832 4483 9836 4478 9840 4474 9843 4470 9847 4466
	 9851 4462 9855 4458 9858 4454 9862 4450 9866 4447 9869 4443
	 9873 4439 9877 4436 9881 4432 9884 4429
2 1 0 1 -1 -1 10 0 -1     0.000 0 0 0 0 0 2
	 9884 4429 9888 4425
2 1 0 1 -1 -1 10 0 -1     0.000 0 0 0 0 0 1000
	 2448 2906 2452 2891 2455 2876 2459 2861 2463 2847 2467 2832
	 2470 2818 2474 2804 2478 2791 2481 2777 2485 2764 2489 2751
	 2493 2739 2496 2727 2500 2715 2504 2704 2508 2693 2511 2682
	 2515 2671 2519 2661 2522 2651 2526 2642 2530 2633 2534 2624
	 2537 2616 2541 2608 2545 2600 2548 2593 2552 2586 2556 2580
	 2560 2574 2563 2568 2567 2563 2571 2558 2575 2554 2578 2550
	 2582 2547 2586 2543 2589 2541 2593 2539 2597 2537 2601 2535
	 2604 2534 2608 2534 2612 2533 2615 2534 2619 2534 2623 2535
	 2627 2537 2630 2539 2634 2541 2638 2544 2642 2547 2645 2550
	 2649 2554 2653 2559 2656 2563 2660 2568 2664 2574 2668 2580
	 2671 2586 2675 2592 2679 2599 2682 2607 2686 2614 2690 2622
	 2694 2631 2697 2639 2701 2649 2705 2658 2709 2667 2712 2677
	 2716 2688 2720 2698 2723 2709 2727 2720 2731 2732 2735 2743
	 2738 2755 2742 2767 2746 2780 2749 2792 2753 2805 2757 2818
	 2761 2831 2764 2844 2768 2858 2772 2872 2776 2886 2779 2900
	 2783 2914 2787 2928 2790 2943 2794 2957 2798 2972 2802 2986
	 2805 3001 2809 3016 2813 3031 2816 3046 2820 3061 2824 3076
	 2828 3091 2831 3106 2835 3121 2839 3137 2843 3152 2846 3167
	 2850 3182 2854 3197 2857 3212 2861 3227 2865 3242 2869 3257
	 2872 3271 2876 3286 2880 3300 2883 3315 2887 3329 2891 3343
	 2895 3358 2898 3372 2902 3385 2906 3399 2910 3413 2913 3426
	 2917 3439 2921 3453 2924 3466 2928 3478 2932 3491 2936 3503
	 2939 3516 2943 3528 2947 3540 2950 3551 2954 3563 2958 3574
	 2962 3585 2965 3596 2969 3607 2973 3617 2977 3628 2980 3638
	 2984 3648 2988 3657 2991 3667 2995 3676 2999 3685 3003 3694
	 3006 3703 3010 3711 3014 3719 3017 3727 3021 3735 3025 3742
	 3029 3750 3032 3757 3036 3764 3040 3771 3043 3777 3047 3784
	 3051 3790 3055 3796 3058 3802 3062 3808 3066 3813 3070 3818
	 3073 3823 3077 3828 3081 3833 3084 3838 3088 3842 3092 3847
	 3096 3851 3099 3855 3103 3859 3107 3863 3110 3866 3114 3870
	 3118 3873 3122 3876 3125 3879 3129 3882 3133 3885 3137 3888
	 3140 3891 3144 3893 3148 3896 3151 3898 3155 3901 3159 3903
	 3163 3905 3166 3907 3170 3909 3174 3911 3177 3913 3181 3915
	 3185 3917 3189 3919 3192 3921 3196 3922 3200 3924 3204 3926
	 3207 3927 3211 3929 3215 3930 3218 3932 3222 3933 3226 3935
	 3230 3936 3233 3937 3237 3939 3241 3940 3244 3942 3248 3943
	 3252 3944 3256 3945 3259 3947 3263 3948 3267 3949 3271 3951
	 3274 3952 3278 3953 3282 3954 3285 3955 3289 3957 3293 3958
	 3297 3959 3300 3960 3304 3961 3308 3962 3311 3963 3315 3964
	 3319 3965 3323 3966 3326 3967 3330 3968 3334 3969 3338 3970
	 3341 3971 3345 3972 3349 3973 3352 3973 3356 3974 3360 3975
	 3364 3975 3367 3976 3371 3976 3375 3977 3378 3977 3382 3978
	 3386 3978 3390 3978 3393 3978 3397 3978 3401 3978 3405 3978
	 3408 3978 3412 3978 3416 3977 3419 3977 3423 3977 3427 3976
	 3431 3975 3434 3975 3438 3974 3442 3973 3445 3972 3449 3971
	 3453 3969 3457 3968 3460 3967 3464 3965 3468 3964 3472 3962
	 3475 3960 3479 3958 3483 3956 3486 3954 3490 3952 3494 3949
	 3498 3947 3501 3944 3505 3942 3509 3939 3512 3936 3516 3933
	 3520 3930 3524 3927 3527 3924 3531 3920 3535 3917 3539 3913
	 3542 3910 3546 3906 3550 3902 3553 3898 3557 3894 3561 3890
	 3565 3886 3568 3882 3572 3877 3576 3873 3579 3869 3583 3864
	 3587 3860 3591 3855 3594 3850 3598 3846 3602 3841 3605 3836
	 3609 3831 3613 3827 3617 3822 3620 3817 3624 3812 3628 3807
	 3632 3802 3635 3797 3639 3792 3643 3787 3646 3782 3650 3777
	 3654 3772 3658 3767 3661 3762 3665 3757 3669 3752 3672 3747
	 3676 3743 3680 3738 3684 3733 3687 3728 3691 3724 3695 3719
	 3699 3714 3702 3710 3706 3705 3710 3701 3713 3697 3717 3693
	 3721 3688 3725 3684 3728 3680 3732 3677 3736 3673 3739 3669
	 3743 3665 3747 3662 3751 3658 3754 3655 3758 3652 3762 3649
	 3766 3646 3769 3643 3773 3640 3777 3637 3780 3635 3784 3632
	 3788 3630 3792 3628 3795 3626 3799 3624 3803 3622 3806 3620
	 3810 3618 3814 3617 3818 3616 3821 3614 3825 3613 3829 3612
	 3833 3611 3836 3611 3840 3610 3844 3609 3847 3609 3851 3609
	 3855 3609 3859 3609 3862 3609 3866 3609 3870 3609 3873 3609
	 3877 3610 3881 3611 3885 3611 3888 3612 3892 3613 3896 3614
	 3900 3615 3903 3616 3907 3618 3911 3619 3914 3621 3918 3622
	 3922 3624 3926 3626 3929 3628 3933 3630 3937 3631 3940 3634
	 3944 3636 3948 3638 3952 3640 3955 3643 3959 3645 3963 3647
	 3967 3650 3970 3652 3974 3655 3978 3658 3981 3661 3985 3663
	 3989 3666 3993 3669 3996 3672 4000 3675 4004 3678 4007 3681
	 4011 3684 4015 3687 4019 3690 4022 3693 4026 3696 4030 3699
	 4034 3702 4037 3705 4041 3708 4045 3711 4048 3714 4052 3718
	 4056 3721 4060 3724 4063 3727 4067 3730 4071 3733 4074 3736
	 4078 3739 4082 3743 4086 3746 4089 3749 4093 3752 4097 3755
	 4101 3758 4104 3761 4108 3764 4112 3767 4115 3770 4119 3773
	 4123 3776 4127 3779 4130 3782 4134 3785 4138 3788 4141 3791
	 4145 3793 4149 3796 4153 3799 4156 3802 4160 3805 4164 3807
	 4167 3810 4171 3813 4175 3815 4179 3818 4182 3821 4186 3823
	 4190 3826 4194 3828 4197 3831 4201 3833 4205 3836 4208 3838
	 4212 3841 4216 3843 4220 3845 4223 3848 4227 3850 4231 3852
	 4234 3855 4238 3857 4242 3859 4246 3861 4249 3863 4253 3866
	 4257 3868 4261 3870 4264 3872 4268 3874 4272 3876 4275 3878
	 4279 3880 4283 3882 4287 3884 4290 3886 4294 3888 4298 3889
	 4301 3891 4305 3893 4309 3895 4313 3896 4316 3898 4320 3900
	 4324 3901 4328 3903 4331 3904 4335 3906 4339 3907 4342 3909
	 4346 3910 4350 3912 4354 3913 4357 3914 4361 3915 4365 3917
	 4368 3918 4372 3919 4376 3920 4380 3921 4383 3922 4387 3922
	 4391 3923 4395 3924 4398 3925 4402 3925 4406 3926 4409 3926
	 4413 3927 4417 3927 4421 3927 4424 3927 4428 3927 4432 3927
	 4435 3927 4439 3927 4443 3927 4447 3926 4450 3926 4454 3925
	 4458 3925 4462 3924 4465 3923 4469 3922 4473 3921 4476 3920
	 4480 3918 4484 3917 4488 3915 4491 3914 4495 3912 4499 3910
	 4502 3908 4506 3906 4510 3903 4514 3901 4517 3898 4521 3895
	 4525 3892 4529 3889 4532 3886 4536 3883 4540 3879 4543 3876
	 4547 3872 4551 3868 4555 3864 4558 3860 4562 3855 4566 3851
	 4569 3846 4573 3841 4577 3836 4581 3831 4584 3826 4588 3820
	 4592 3814 4596 3808 4599 3802 4603 3796 4607 3790 4610 3783
	 4614 3777 4618 3770 4622 3763 4625 3755 4629 3748 4633 3741
	 4636 3733 4640 3725 4644 3717 4648 3709 4651 3700 4655 3692
	 4659 3683 4663 3674 4666 3665 4670 3656 4674 3647 4677 3638
	 4681 3628 4685 3618 4689 3608 4692 3598 4696 3588 4700 3578
	 4703 3568 4707 3557 4711 3546 4715 3536 4718 3525 4722 3514
	 4726 3503 4730 3492 4733 3480 4737 3469 4741 3457 4744 3446
	 4748 3434 4752 3422 4756 3410 4759 3399 4763 3387 4767 3375
	 4770 3363 4774 3350 4778 3338 4782 3326 4785 3314 4789 3302
	 4793 3289 4796 3277 4800 3265 4804 3253 4808 3240 4811 3228
	 4815 3216 4819 3204 4823 3192 4826 3180 4830 3168 4834 3156
	 4837 3144 4841 3132 4845 3120 4849 3108 4852 3097 4856 3085
	 4860 3074 4863 3063 4867 3052 4871 3041 4875 3030 4878 3019
	 4882 3009 4886 2998 4890 2988 4893 2978 4897 2968 4901 2959
	 4904 2949 4908 2940 4912 2931 4916 2922 4919 2914 4923 2906
	 4927 2898 4930 2890 4934 2882 4938 2875 4942 2868 4945 2862
	 4949 2855 4953 2849 4957 2843 4960 2838 4964 2833 4968 2828
	 4971 2824 4975 2820 4979 2816 4983 2812 4986 2809 4990 2807
	 4994 2804 4997 2802 5001 2801 5005 2799 5009 2798 5012 2798
	 5016 2798 5020 2798 5024 2799 5027 2800 5031 2801 5035 2803
	 5038 2805 5042 2808 5046 2811 5050 2814 5053 2818 5057 2823
	 5061 2827 5064 2832 5068 2838 5072 2843 5076 2850 5079 2856
	 5083 2863 5087 2871 5091 2878 5094 2887 5098 2895 5102 2904
	 5105 2913 5109 2923 5113 2933 5117 2943 5120 2954 5124 2965
	 5128 2977 5131 2988 5135 3001 5139 3013 5143 3026 5146 3039
	 5150 3052 5154 3066 5158 3080 5161 3094 5165 3109 5169 3124
	 5172 3139 5176 3155 5180 3170 5184 3186 5187 3202 5191 3219
	 5195 3236 5198 3252 5202 3270 5206 3287 5210 3304 5213 3322
	 5217 3340 5221 3358 5225 3376 5228 3395 5232 3413 5236 3432
	 5239 3451 5243 3470 5247 3489 5251 3509 5254 3528 5258 3547
	 5262 3567 5265 3587 5269 3606 5273 3626 5277 3646 5280 3666
	 5284 3686 5288 3707 5292 3727 5295 3747 5299 3767 5303 3788
	 5306 3808 5310 3828 5314 3849 5318 3869 5321 3889 5325 3910
	 5329 3930 5332 3950 5336 3971 5340 3991 5344 4011 5347 4032
	 5351 4052 5355 4072 5358 4092 5362 4112 5366 4132 5370 4152
	 5373 4172 5377 4192 5381 4212 5385 4232 5388 4252 5392 4271
	 5396 4291 5399 4310 5403 4330 5407 4349 5411 4368 5414 4387
	 5418 4406 5422 4425 5425 4444 5429 4463 5433 4481 5437 4500
	 5440 4518 5444 4537 5448 4555 5452 4573 5455 4591 5459 4608
	 5463 4626 5466 4643 5470 4661 5474 4678 5478 4695 5481 4712
	 5485 4729 5489 4745 5492 4762 5496 4778 5500 4794 5504 4810
	 5507 4826 5511 4842 5515 4857 5519 4872 5522 4887 5526 4902
	 5530 4917 5533 4931 5537 4946 5541 4960 5545 4974 5548 4988
	 5552 5001 5556 5014 5559 5028 5563 5040 5567 5053 5571 5066
	 5574 5078 5578 5090 5582 5102 5586 5113 5589 5124 5593 5136
	 5597 5146 5600 5157 5604 5167 5608 5178 5612 5187 5615 5197
	 5619 5207 5623 5216 5626 5225 5630 5233 5634 5242 5638 5250
	 5641 5258 5645 5265 5649 5273 5653 5280 5656 5287 5660 5293
	 5664 5300 5667 5306 5671 5312 5675 5317 5679 5322 5682 5328
	 5686 5332 5690 5337 5693 5341 5697 5345 5701 5349 5705 5353
	 5708 5356 5712 5359 5716 5362 5720 5365 5723 5367 5727 5369
	 5731 5371 5734 5373 5738 5374 5742 5375 5746 5376 5749 5377
	 5753 5378 5757 5378 5760 5378 5764 5378 5768 5378 5772 5377
	 5775 5377 5779 5376 5783 5375 5787 5374 5790 5372 5794 5371
	 5798 5369 5801 5367 5805 5365 5809 5363 5813 5361 5816 5358
	 5820 5356 5824 5353 5827 5350 5831 5347 5835 5344 5839 5341
	 5842 5337 5846 5334 5850 5331 5854 5327 5857 5323 5861 5319
	 5865 5316 5868 5312 5872 5308 5876 5303 5880 5299 5883 5295
	 5887 5291 5891 5287 5894 5282 5898 5278 5902 5274 5906 5269
	 5909 5265 5913 5260 5917 5256 5920 5251 5924 5247 5928 5242
	 5932 5237 5935 5233 5939 5228 5943 5224 5947 5219 5950 5215
	 5954 5210 5958 5206 5961 5201 5965 5197 5969 5192 5973 5188
	 5976 5183 5980 5179 5984 5174 5987 5170 5991 5166 5995 5162
	 5999 5157 6002 5153 6006 5149 6010 5145 6014 5141 6017 5137
	 6021 5133 6025 5129 6028 5125 6032 5121 6036 5117 6040 5114
	 6043 5110 6047 5106 6051 5103 6054 5099 6058 5096 6062 5092
	 6066 5089 6069 5085 6073 5082 6077 5079 6081 5076 6084 5072
	 6088 5069 6092 5066 6095 5063 6099 5060 6103 5057 6107 5054
	 6110 5051 6114 5048 6118 5045 6121 5043 6125 5040 6129 5037
	 6133 5035 6136 5032 6140 5029 6144 5027 6148 5024 6151 5022
	 6155 5019 6159 5017 6162 5014 6166 5012
2 1 0 1 -1 -1 10 0 -1     0.000 0 0 0 0 0 1000
	 6166 5012 6170 5009 6174 5007 6177 5004 6181 5002 6185 5000
	 6188 4997 6192 4995 6196 4993 6200 4990 6203 4988 6207 4986
	 6211 4983 6215 4981 6218 4979 6222 4976 6226 4974 6229 4972
	 6233 4969 6237 4967 6241 4964 6244 4962 6248 4960 6252 4957
	 6255 4955 6259 4952 6263 4950 6267 4947 6270 4945 6274 4942
	 6278 4939 6282 4937 6285 4934 6289 4931 6293 4928 6296 4926
	 6300 4923 6304 4920 6308 4917 6311 4914 6315 4911 6319 4908
	 6322 4905 6326 4902 6330 4899 6334 4895 6337 4892 6341 4889
	 6345 4885 6349 4882 6352 4878 6356 4875 6360 4871 6363 4868
	 6367 4864 6371 4860 6375 4856 6378 4852 6382 4849 6386 4845
	 6389 4841 6393 4836 6397 4832 6401 4828 6404 4824 6408 4820
	 6412 4815 6416 4811 6419 4806 6423 4802 6427 4797 6430 4793
	 6434 4788 6438 4783 6442 4779 6445 4774 6449 4769 6453 4764
	 6456 4759 6460 4754 6464 4749 6468 4744 6471 4739 6475 4734
	 6479 4729 6482 4723 6486 4718 6490 4713 6494 4707 6497 4702
	 6501 4697 6505 4691 6509 4686 6512 4680 6516 4675 6520 4669
	 6523 4663 6527 4658 6531 4652 6535 4647 6538 4641 6542 4635
	 6546 4629 6549 4624 6553 4618 6557 4612 6561 4606 6564 4600
	 6568 4594 6572 4588 6576 4583 6579 4577 6583 4571 6587 4565
	 6590 4559 6594 4553 6598 4546 6602 4540 6605 4534 6609 4528
	 6613 4522 6616 4516 6620 4510 6624 4503 6628 4497 6631 4491
	 6635 4484 6639 4478 6643 4472 6646 4465 6650 4459 6654 4452
	 6657 4446 6661 4439 6665 4433 6669 4426 6672 4420 6676 4413
	 6680 4406 6683 4400 6687 4393 6691 4386 6695 4379 6698 4372
	 6702 4365 6706 4359 6710 4352 6713 4345 6717 4338 6721 4330
	 6724 4323 6728 4316 6732 4309 6736 4301 6739 4294 6743 4287
	 6747 4279 6750 4272 6754 4264 6758 4257 6762 4249 6765 4242
	 6769 4234 6773 4226 6777 4219 6780 4211 6784 4203 6788 4195
	 6791 4188 6795 4180 6799 4172 6803 4164 6806 4156 6810 4148
	 6814 4140 6817 4132 6821 4124 6825 4116 6829 4108 6832 4100
	 6836 4092 6840 4084 6844 4076 6847 4068 6851 4060 6855 4052
	 6858 4044 6862 4036 6866 4028 6870 4020 6873 4013 6877 4005
	 6881 3997 6884 3989 6888 3982 6892 3974 6896 3966 6899 3959
	 6903 3951 6907 3944 6911 3937 6914 3930 6918 3923 6922 3916
	 6925 3909 6929 3902 6933 3895 6937 3888 6940 3882 6944 3875
	 6948 3869 6951 3863 6955 3857 6959 3851 6963 3845 6966 3839
	 6970 3834 6974 3828 6978 3823 6981 3818 6985 3813 6989 3808
	 6992 3804 6996 3799 7000 3795 7004 3790 7007 3786 7011 3783
	 7015 3779 7018 3775 7022 3772 7026 3769 7030 3766 7033 3763
	 7037 3760 7041 3757 7044 3755 7048 3753 7052 3751 7056 3749
	 7059 3747 7063 3745 7067 3744 7071 3743 7074 3742 7078 3741
	 7082 3740 7085 3739 7089 3739 7093 3738 7097 3738 7100 3738
	 7104 3738 7108 3739 7111 3739 7115 3740 7119 3740 7123 3741
	 7126 3742 7130 3743 7134 3744 7138 3745 7141 3747 7145 3748
	 7149 3750 7152 3751 7156 3753 7160 3755 7164 3757 7167 3759
	 7171 3761 7175 3763 7178 3765 7182 3768 7186 3770 7190 3773
	 7193 3775 7197 3777 7201 3780 7205 3782 7208 3785 7212 3787
	 7216 3790 7219 3793 7223 3795 7227 3798 7231 3800 7234 3803
	 7238 3806 7242 3808 7245 3811 7249 3813 7253 3815 7257 3818
	 7260 3820 7264 3822 7268 3825 7272 3827 7275 3829 7279 3831
	 7283 3833 7286 3835 7290 3836 7294 3838 7298 3839 7301 3841
	 7305 3842 7309 3844 7312 3845 7316 3846 7320 3846 7324 3847
	 7327 3848 7331 3848 7335 3849 7339 3849 7342 3849 7346 3849
	 7350 3848 7353 3848 7357 3847 7361 3847 7365 3846 7368 3845
	 7372 3843 7376 3842 7379 3840 7383 3838 7387 3836 7391 3834
	 7394 3832 7398 3829 7402 3826 7406 3823 7409 3820 7413 3817
	 7417 3813 7420 3810 7424 3806 7428 3801 7432 3797 7435 3792
	 7439 3788 7443 3783 7446 3777 7450 3772 7454 3766 7458 3760
	 7461 3754 7465 3748 7469 3742 7473 3735 7476 3728 7480 3721
	 7484 3714 7487 3706 7491 3698 7495 3691 7499 3682 7502 3674
	 7506 3666 7510 3657 7513 3648 7517 3639 7521 3630 7525 3620
	 7528 3611 7532 3601 7536 3591 7540 3581 7543 3571 7547 3561
	 7551 3550 7554 3539 7558 3529 7562 3517 7566 3506 7569 3495
	 7573 3484 7577 3472 7580 3461 7584 3449 7588 3437 7592 3426
	 7595 3414 7599 3402 7603 3390 7606 3377 7610 3365 7614 3353
	 7618 3341 7621 3328 7625 3316 7629 3304 7633 3291 7636 3279
	 7640 3267 7644 3255 7647 3242 7651 3230 7655 3218 7659 3206
	 7662 3194 7666 3182 7670 3170 7673 3158 7677 3146 7681 3134
	 7685 3123 7688 3112 7692 3100 7696 3089 7700 3078 7703 3068
	 7707 3057 7711 3047 7714 3036 7718 3026 7722 3017 7726 3007
	 7729 2998 7733 2989 7737 2980 7740 2971 7744 2963 7748 2955
	 7752 2947 7755 2940 7759 2933 7763 2926 7767 2920 7770 2914
	 7774 2908 7778 2902 7781 2897 7785 2893 7789 2888 7793 2884
	 7796 2881 7800 2878 7804 2875 7807 2873 7811 2871 7815 2869
	 7819 2868 7822 2868 7826 2868 7830 2868 7834 2869 7837 2870
	 7841 2872 7845 2874 7848 2877 7852 2880 7856 2883 7860 2887
	 7863 2892 7867 2897 7871 2903 7874 2909 7878 2915 7882 2923
	 7886 2930 7889 2938 7893 2947 7897 2956 7901 2966 7904 2976
	 7908 2987 7912 2998 7915 3009 7919 3022 7923 3034 7927 3048
	 7930 3061 7934 3076 7938 3090 7941 3106 7945 3121 7949 3138
	 7953 3154 7956 3171 7960 3189 7964 3207 7968 3226 7971 3245
	 7975 3264 7979 3285 7982 3305 7986 3326 7990 3347 7994 3369
	 7997 3391 8001 3414 8005 3437 8008 3460 8012 3484 8016 3508
	 8020 3532 8023 3557 8027 3583 8031 3608 8035 3634 8038 3660
	 8042 3687 8046 3714 8049 3741 8053 3769 8057 3796 8061 3824
	 8064 3853 8068 3881 8072 3910 8075 3939 8079 3968 8083 3998
	 8087 4027 8090 4057 8094 4087 8098 4117 8102 4147 8105 4178
	 8109 4208 8113 4239 8116 4270 8120 4301 8124 4331 8128 4362
	 8131 4394 8135 4425 8139 4456 8142 4487 8146 4518 8150 4549
	 8154 4580 8157 4612 8161 4643 8165 4674 8169 4705 8172 4736
	 8176 4767 8180 4798 8183 4828 8187 4859 8191 4889 8195 4920
	 8198 4950 8202 4980 8206 5010 8209 5040 8213 5070 8217 5099
	 8221 5129 8224 5158 8228 5187 8232 5215 8235 5244 8239 5272
	 8243 5300 8247 5328 8250 5356 8254 5383 8258 5410 8262 5437
	 8265 5463 8269 5490 8273 5516 8276 5541 8280 5567 8284 5592
	 8288 5617 8291 5641 8295 5665 8299 5689 8302 5713 8306 5736
	 8310 5759 8314 5781 8317 5803 8321 5825 8325 5847 8329 5868
	 8332 5889 8336 5909 8340 5929 8343 5949 8347 5968 8351 5987
	 8355 6005 8358 6024 8362 6041 8366 6059 8369 6076 8373 6092
	 8377 6109 8381 6125 8384 6140 8388 6155 8392 6170 8396 6184
	 8399 6198 8403 6211 8407 6225 8410 6237 8414 6250 8418 6261
	 8422 6273 8425 6284 8429 6295 8433 6305 8436 6315 8440 6324
	 8444 6333 8448 6342 8451 6350 8455 6358 8459 6365 8463 6372
	 8466 6379 8470 6385 8474 6391 8477 6396 8481 6401 8485 6405
	 8489 6410 8492 6413 8496 6417 8500 6420 8503 6422 8507 6424
	 8511 6426 8515 6428 8518 6429 8522 6429 8526 6429 8530 6429
	 8533 6429 8537 6428 8541 6427 8544 6425 8548 6423 8552 6421
	 8556 6418 8559 6415 8563 6412 8567 6409 8570 6405 8574 6400
	 8578 6396 8582 6391 8585 6386 8589 6380 8593 6374 8597 6368
	 8600 6362 8604 6355 8608 6348 8611 6341 8615 6334 8619 6326
	 8623 6318 8626 6310 8630 6302 8634 6293 8637 6284 8641 6276
	 8645 6266 8649 6257 8652 6248 8656 6238 8660 6228 8664 6218
	 8667 6208 8671 6198 8675 6188 8678 6178 8682 6167 8686 6157
	 8690 6146 8693 6135 8697 6125 8701 6114 8704 6103 8708 6092
	 8712 6081 8716 6071 8719 6060 8723 6049 8727 6038 8731 6027
	 8734 6017 8738 6006 8742 5995 8745 5985 8749 5974 8753 5964
	 8757 5953 8760 5943 8764 5933 8768 5923 8771 5913 8775 5903
	 8779 5893 8783 5884 8786 5874 8790 5865 8794 5856 8797 5847
	 8801 5838 8805 5829 8809 5821 8812 5812 8816 5804 8820 5796
	 8824 5788 8827 5781 8831 5773 8835 5766 8838 5759 8842 5752
	 8846 5745 8850 5739 8853 5732 8857 5726 8861 5720 8864 5714
	 8868 5709 8872 5703 8876 5698 8879 5693 8883 5688 8887 5683
	 8891 5678 8894 5674 8898 5669 8902 5665 8905 5661 8909 5657
	 8913 5653 8917 5649 8920 5646 8924 5642 8928 5639 8931 5636
	 8935 5633 8939 5629 8943 5626 8946 5623 8950 5621 8954 5618
	 8958 5615 8961 5612 8965 5609 8969 5607 8972 5604 8976 5601
	 8980 5599 8984 5596 8987 5593 8991 5591 8995 5588 8998 5585
	 9002 5583 9006 5580 9010 5577 9013 5574 9017 5571 9021 5568
	 9025 5565 9028 5561 9032 5558 9036 5554 9039 5551 9043 5547
	 9047 5543 9051 5539 9054 5535 9058 5531 9062 5527 9065 5523
	 9069 5518 9073 5513 9077 5508 9080 5503 9084 5498 9088 5493
	 9092 5487 9095 5482 9099 5476 9103 5470 9106 5464 9110 5457
	 9114 5451 9118 5444 9121 5437 9125 5430 9129 5423 9132 5416
	 9136 5408 9140 5401 9144 5393 9147 5385 9151 5377 9155 5369
	 9159 5360 9162 5352 9166 5343 9170 5334 9173 5325 9177 5316
	 9181 5307 9185 5297 9188 5288 9192 5278 9196 5268 9199 5258
	 9203 5248 9207 5238 9211 5228 9214 5218 9218 5207 9222 5197
	 9226 5186 9229 5176 9233 5165 9237 5154 9240 5143 9244 5132
	 9248 5121 9252 5110 9255 5099 9259 5088 9263 5077 9266 5066
	 9270 5054 9274 5043 9278 5032 9281 5021 9285 5009 9289 4998
	 9293 4987 9296 4975 9300 4964 9304 4953 9307 4941 9311 4930
	 9315 4919 9319 4907 9322 4896 9326 4885 9330 4874 9333 4862
	 9337 4851 9341 4840 9345 4829 9348 4818 9352 4807 9356 4796
	 9359 4785 9363 4774 9367 4763 9371 4752 9374 4742 9378 4731
	 9382 4720 9386 4710 9389 4699 9393 4688 9397 4678 9400 4668
	 9404 4657 9408 4647 9412 4636 9415 4626 9419 4616 9423 4606
	 9426 4596 9430 4586 9434 4576 9438 4566 9441 4556 9445 4546
	 9449 4536 9453 4526 9456 4517 9460 4507 9464 4497 9467 4488
	 9471 4478 9475 4469 9479 4459 9482 4450 9486 4440 9490 4431
	 9493 4422 9497 4412 9501 4403 9505 4394 9508 4385 9512 4376
	 9516 4366 9520 4357 9523 4348 9527 4339 9531 4330 9534 4321
	 9538 4312 9542 4303 9546 4294 9549 4286 9553 4277 9557 4268
	 9560 4259 9564 4251 9568 4242 9572 4233 9575 4224 9579 4216
	 9583 4207 9587 4198 9590 4190 9594 4181 9598 4173 9601 4164
	 9605 4156 9609 4147 9613 4139 9616 4130 9620 4122 9624 4113
	 9627 4105 9631 4097 9635 4088 9639 4080 9642 4072 9646 4063
	 9650 4055 9654 4047 9657 4039 9661 4031 9665 4023 9668 4014
	 9672 4006 9676 3998 9680 3990 9683 3982 9687 3974 9691 3966
	 9694 3958 9698 3950 9702 3943 9706 3935 9709 3927 9713 3919
	 9717 3912 9721 3904 9724 3896 9728 3889 9732 3881 9735 3874
	 9739 3866 9743 3859 9747 3852 9750 3844 9754 3837 9758 3830
	 9761 3823 9765 3816 9769 3809 9773 3802 9776 3795 9780 3788
	 9784 3781 9788 3775 9791 3768 9795 3762 9799 3756 9802 3749
	 9806 3743 9810 3737 9814 3731 9817 3725 9821 3719 9825 3714
	 9828 3708 9832 3703 9836 3698 9840 3692 9843 3687 9847 3682
	 9851 3678 9855 3673 9858 3669 9862 3664 9866 3660 9869 3656
	 9873 3652 9877 3649 9881 3645 9884 3642
2 1 0 1 -1 -1 10 0 -1     0.000 0 0 0 0 0 2
	 9884 3642 9888 3639
2 1 0 1 -1 -1 10 0 -1     0.000 0 0 0 0 0 1000
	 2448 3320 2452 3317 2455 3315 2459 3313 2463 3310 2467 3308
	 2470 3306 2474 3303 2478 3301 2481 3298 2485 3296 2489 3293
	 2493 3291 2496 3288 2500 3286 2504 3283 2508 3281 2511 3278
	 2515 3276 2519 3273 2522 3271 2526 3268 2530 3265 2534 3263
	 2537 3260 2541 3258 2545 3255 2548 3253 2552 3250 2556 3248
	 2560 3245 2563 3243 2567 3241 2571 3238 2575 3236 2578 3233
	 2582 3231 2586 3229 2589 3226 2593 3224 2597 3222 2601 3220
	 2604 3218 2608 3215 2612 3213 2615 3211 2619 3209 2623 3207
	 2627 3206 2630 3204 2634 3202 2638 3200 2642 3199 2645 3197
	 2649 3195 2653 3194 2656 3193 2660 3191 2664 3190 2668 3189
	 2671 3188 2675 3187 2679 3186 2682 3185 2686 3184 2690 3184
	 2694 3183 2697 3183 2701 3182 2705 3182 2709 3182 2712 3182
	 2716 3182 2720 3182 2723 3182 2727 3183 2731 3183 2735 3184
	 2738 3185 2742 3186 2746 3187 2749 3188 2753 3190 2757 3191
	 2761 3193 2764 3194 2768 3196 2772 3199 2776 3201 2779 3203
	 2783 3206 2787 3209 2790 3212 2794 3215 2798 3218 2802 3221
	 2805 3225 2809 3229 2813 3233 2816 3237 2820 3241 2824 3245
	 2828 3250 2831 3255 2835 3260 2839 3265 2843 3271 2846 3276
	 2850 3282 2854 3288 2857 3294 2861 3300 2865 3307 2869 3314
	 2872 3321 2876 3328 2880 3335 2883 3342 2887 3350 2891 3358
	 2895 3366 2898 3374 2902 3382 2906 3391 2910 3400 2913 3408
	 2917 3417 2921 3427 2924 3436 2928 3446 2932 3455 2936 3465
	 2939 3475 2943 3485 2947 3496 2950 3506 2954 3517 2958 3528
	 2962 3539 2965 3550 2969 3561 2973 3572 2977 3584 2980 3595
	 2984 3607 2988 3619 2991 3631 2995 3643 2999 3655 3003 3667
	 3006 3679 3010 3691 3014 3704 3017 3716 3021 3729 3025 3742
	 3029 3754 3032 3767 3036 3780 3040 3793 3043 3806 3047 3819
	 3051 3832 3055 3845 3058 3858 3062 3871 3066 3884 3070 3897
	 3073 3910 3077 3923 3081 3936 3084 3949 3088 3962 3092 3974
	 3096 3987 3099 4000 3103 4013 3107 4026 3110 4038 3114 4051
	 3118 4064 3122 4076 3125 4089 3129 4101 3133 4113 3137 4125
	 3140 4137 3144 4149 3148 4161 3151 4173 3155 4185 3159 4196
	 3163 4208 3166 4219 3170 4230 3174 4241 3177 4252 3181 4263
	 3185 4273 3189 4284 3192 4294 3196 4304 3200 4314 3204 4324
	 3207 4334 3211 4343 3215 4353 3218 4362 3222 4371 3226 4380
	 3230 4388 3233 4397 3237 4405 3241 4413 3244 4421 3248 4428
	 3252 4436 3256 4443 3259 4450 3263 4457 3267 4464 3271 4470
	 3274 4476 3278 4482 3282 4488 3285 4494 3289 4499 3293 4504
	 3297 4509 3300 4514 3304 4519 3308 4523 3311 4527 3315 4531
	 3319 4535 3323 4538 3326 4542 3330 4545 3334 4547 3338 4550
	 3341 4552 3345 4555 3349 4557 3352 4558 3356 4560 3360 4561
	 3364 4563 3367 4563 3371 4564 3375 4565 3378 4565 3382 4565
	 3386 4565 3390 4565 3393 4565 3397 4564 3401 4563 3405 4562
	 3408 4561 3412 4560 3416 4558 3419 4557 3423 4555 3427 4553
	 3431 4551 3434 4548 3438 4546 3442 4543 3445 4541 3449 4538
	 3453 4535 3457 4531 3460 4528 3464 4525 3468 4521 3472 4518
	 3475 4514 3479 4510 3483 4506 3486 4502 3490 4498 3494 4494
	 3498 4490 3501 4485 3505 4481 3509 4476 3512 4472 3516 4467
	 3520 4463 3524 4458 3527 4453 3531 4449 3535 4444 3539 4439
	 3542 4434 3546 4430 3550 4425 3553 4420 3557 4415 3561 4410
	 3565 4406 3568 4401 3572 4396 3576 4391 3579 4387 3583 4382
	 3587 4377 3591 4373 3594 4368 3598 4364 3602 4359 3605 4355
	 3609 4351 3613 4346 3617 4342 3620 4338 3624 4334 3628 4330
	 3632 4326 3635 4322 3639 4319 3643 4315 3646 4311 3650 4308
	 3654 4304 3658 4301 3661 4298 3665 4295 3669 4292 3672 4289
	 3676 4286 3680 4283 3684 4280 3687 4277 3691 4275 3695 4272
	 3699 4270 3702 4268 3706 4266 3710 4263 3713 4261 3717 4259
	 3721 4258 3725 4256 3728 4254 3732 4252 3736 4251 3739 4249
	 3743 4248 3747 4246 3751 4245 3754 4243 3758 4242 3762 4241
	 3766 4240 3769 4238 3773 4237 3777 4236 3780 4235 3784 4234
	 3788 4233 3792 4232 3795 4231 3799 4230 3803 4229 3806 4228
	 3810 4227 3814 4226 3818 4225 3821 4224 3825 4222 3829 4221
	 3833 4220 3836 4219 3840 4218 3844 4217 3847 4215 3851 4214
	 3855 4212 3859 4211 3862 4210 3866 4208 3870 4206 3873 4205
	 3877 4203 3881 4201 3885 4199 3888 4197 3892 4195 3896 4193
	 3900 4191 3903 4189 3907 4187 3911 4184 3914 4182 3918 4179
	 3922 4177 3926 4174 3929 4171 3933 4169 3937 4166 3940 4163
	 3944 4160 3948 4156 3952 4153 3955 4150 3959 4147 3963 4143
	 3967 4140 3970 4136 3974 4133 3978 4129 3981 4125 3985 4122
	 3989 4118 3993 4114 3996 4110 4000 4106 4004 4102 4007 4098
	 4011 4094 4015 4090 4019 4086 4022 4082 4026 4078 4030 4074
	 4034 4070 4037 4066 4041 4061 4045 4057 4048 4053 4052 4049
	 4056 4045 4060 4041 4063 4037 4067 4034 4071 4030 4074 4026
	 4078 4022 4082 4019 4086 4015 4089 4011 4093 4008 4097 4005
	 4101 4001 4104 3998 4108 3995 4112 3992 4115 3989 4119 3986
	 4123 3983 4127 3981 4130 3978 4134 3976 4138 3974 4141 3971
	 4145 3969 4149 3967 4153 3966 4156 3964 4160 3963 4164 3961
	 4167 3960 4171 3959 4175 3958 4179 3957 4182 3957 4186 3956
	 4190 3956 4194 3955 4197 3955 4201 3955 4205 3956 4208 3956
	 4212 3956 4216 3957 4220 3958 4223 3959 4227 3960 4231 3961
	 4234 3962 4238 3964 4242 3965 4246 3967 4249 3969 4253 3971
	 4257 3973 4261 3975 4264 3977 4268 3980 4272 3982 4275 3985
	 4279 3987 4283 3990 4287 3993 4290 3996 4294 3999 4298 4002
	 4301 4005 4305 4008 4309 4011 4313 4015 4316 4018 4320 4021
	 4324 4025 4328 4028 4331 4031 4335 4035 4339 4038 4342 4042
	 4346 4045 4350 4048 4354 4052 4357 4055 4361 4058 4365 4062
	 4368 4065 4372 4068 4376 4071 4380 4074 4383 4077 4387 4080
	 4391 4083 4395 4085 4398 4088 4402 4090 4406 4093 4409 4095
	 4413 4097 4417 4099 4421 4101 4424 4103 4428 4104 4432 4105
	 4435 4107 4439 4108 4443 4109 4447 4109 4450 4110 4454 4110
	 4458 4110 4462 4110 4465 4110 4469 4110 4473 4109 4476 4108
	 4480 4107 4484 4106 4488 4104 4491 4102 4495 4100 4499 4098
	 4502 4095 4506 4093 4510 4090 4514 4086 4517 4083 4521 4079
	 4525 4075 4529 4071 4532 4067 4536 4062 4540 4057 4543 4051
	 4547 4046 4551 4040 4555 4034 4558 4028 4562 4021 4566 4014
	 4569 4007 4573 4000 4577 3992 4581 3985 4584 3976 4588 3968
	 4592 3960 4596 3951 4599 3942 4603 3932 4607 3923 4610 3913
	 4614 3903 4618 3893 4622 3882 4625 3871 4629 3860 4633 3849
	 4636 3838 4640 3826 4644 3814 4648 3803 4651 3790 4655 3778
	 4659 3765 4663 3753 4666 3740 4670 3727 4674 3714 4677 3700
	 4681 3687 4685 3673 4689 3659 4692 3645 4696 3631 4700 3617
	 4703 3603 4707 3589 4711 3574 4715 3560 4718 3545 4722 3530
	 4726 3516 4730 3501 4733 3486 4737 3471 4741 3456 4744 3441
	 4748 3426 4752 3411 4756 3396 4759 3381 4763 3366 4767 3351
	 4770 3336 4774 3321 4778 3306 4782 3291 4785 3276 4789 3261
	 4793 3246 4796 3232 4800 3217 4804 3203 4808 3188 4811 3174
	 4815 3160 4819 3146 4823 3132 4826 3118 4830 3104 4834 3090
	 4837 3077 4841 3064 4845 3050 4849 3037 4852 3025 4856 3012
	 4860 2999 4863 2987 4867 2975 4871 2963 4875 2951 4878 2940
	 4882 2928 4886 2917 4890 2906 4893 2896 4897 2885 4901 2875
	 4904 2865 4908 2855 4912 2846 4916 2836 4919 2827 4923 2819
	 4927 2810 4930 2802 4934 2794 4938 2786 4942 2779 4945 2771
	 4949 2765 4953 2758 4957 2752 4960 2745 4964 2740 4968 2734
	 4971 2729 4975 2724 4979 2719 4983 2715 4986 2711 4990 2707
	 4994 2704 4997 2701 5001 2698 5005 2695 5009 2693 5012 2691
	 5016 2689 5020 2688 5024 2687 5027 2686 5031 2686 5035 2686
	 5038 2686 5042 2687 5046 2688 5050 2689 5053 2691 5057 2693
	 5061 2695 5064 2697 5068 2700 5072 2703 5076 2707 5079 2711
	 5083 2715 5087 2719 5091 2724 5094 2729 5098 2735 5102 2741
	 5105 2747 5109 2753 5113 2760 5117 2767 5120 2775 5124 2783
	 5128 2791 5131 2799 5135 2808 5139 2817 5143 2827 5146 2837
	 5150 2847 5154 2857 5158 2868 5161 2879 5165 2891 5169 2903
	 5172 2915 5176 2927 5180 2940 5184 2953 5187 2967 5191 2981
	 5195 2995 5198 3009 5202 3024 5206 3039 5210 3055 5213 3070
	 5217 3086 5221 3103 5225 3119 5228 3136 5232 3154 5236 3171
	 5239 3189 5243 3207 5247 3226 5251 3244 5254 3263 5258 3283
	 5262 3302 5265 3322 5269 3342 5273 3362 5277 3383 5280 3404
	 5284 3425 5288 3446 5292 3468 5295 3490 5299 3512 5303 3534
	 5306 3557 5310 3579 5314 3602 5318 3625 5321 3649 5325 3672
	 5329 3696 5332 3719 5336 3743 5340 3768 5344 3792 5347 3816
	 5351 3841 5355 3865 5358 3890 5362 3915 5366 3940 5370 3965
	 5373 3990 5377 4015 5381 4041 5385 4066 5388 4091 5392 4117
	 5396 4142 5399 4168 5403 4193 5407 4219 5411 4244 5414 4270
	 5418 4295 5422 4321 5425 4346 5429 4371 5433 4397 5437 4422
	 5440 4447 5444 4472 5448 4497 5452 4522 5455 4547 5459 4571
	 5463 4596 5466 4620 5470 4644 5474 4669 5478 4692 5481 4716
	 5485 4740 5489 4763 5492 4786 5496 4809 5500 4832 5504 4855
	 5507 4877 5511 4900 5515 4922 5519 4943 5522 4965 5526 4986
	 5530 5007 5533 5028 5537 5048 5541 5068 5545 5088 5548 5108
	 5552 5127 5556 5146 5559 5165 5563 5183 5567 5201 5571 5219
	 5574 5237 5578 5254 5582 5271 5586 5287 5589 5304 5593 5319
	 5597 5335 5600 5350 5604 5365 5608 5380 5612 5394 5615 5408
	 5619 5421 5623 5435 5626 5447 5630 5460 5634 5472 5638 5484
	 5641 5495 5645 5506 5649 5517 5653 5528 5656 5538 5660 5548
	 5664 5557 5667 5566 5671 5575 5675 5583 5679 5591 5682 5599
	 5686 5606 5690 5613 5693 5620 5697 5627 5701 5633 5705 5638
	 5708 5644 5712 5649 5716 5654 5720 5658 5723 5663 5727 5666
	 5731 5670 5734 5673 5738 5676 5742 5679 5746 5682 5749 5684
	 5753 5686 5757 5687 5760 5689 5764 5690 5768 5691 5772 5691
	 5775 5691 5779 5692 5783 5691 5787 5691 5790 5690 5794 5690
	 5798 5688 5801 5687 5805 5686 5809 5684 5813 5682 5816 5680
	 5820 5678 5824 5675 5827 5672 5831 5669 5835 5666 5839 5663
	 5842 5660 5846 5656 5850 5652 5854 5648 5857 5644 5861 5640
	 5865 5636 5868 5631 5872 5626 5876 5622 5880 5617 5883 5612
	 5887 5607 5891 5601 5894 5596 5898 5590 5902 5585 5906 5579
	 5909 5573 5913 5567 5917 5561 5920 5555 5924 5549 5928 5543
	 5932 5536 5935 5530 5939 5523 5943 5516 5947 5510 5950 5503
	 5954 5496 5958 5489 5961 5482 5965 5475 5969 5468 5973 5461
	 5976 5453 5980 5446 5984 5439 5987 5431 5991 5424 5995 5416
	 5999 5409 6002 5401 6006 5393 6010 5386 6014 5378 6017 5370
	 6021 5362 6025 5354 6028 5346 6032 5338 6036 5330 6040 5322
	 6043 5314 6047 5306 6051 5297 6054 5289 6058 5281 6062 5273
	 6066 5264 6069 5256 6073 5247 6077 5239 6081 5230 6084 5222
	 6088 5213 6092 5205 6095 5196 6099 5188 6103 5179 6107 5170
	 6110 5162 6114 5153 6118 5144 6121 5135 6125 5127 6129 5118
	 6133 5109 6136 5100 6140 5091 6144 5083 6148 5074 6151 5065
	 6155 5056 6159 5047 6162 5038 6166 5030
2 1 0 1 -1 -1 10 0 -1     0.000 0 0 0 0 0 1000
	 6166 5030 6170 5021 6174 5012 6177 5003 6181 4994 6185 4985
	 6188 4977 6192 4968 6196 4959 6200 4950 6203 4941 6207 4933
	 6211 4924 6215 4915 6218 4907 6222 4898 6226 4889 6229 4881
	 6233 4872 6237 4864 6241 4855 6244 4847 6248 4839 6252 4830
	 6255 4822 6259 4814 6263 4806 6267 4797 6270 4789 6274 4781
	 6278 4773 6282 4765 6285 4757 6289 4750 6293 4742 6296 4734
	 6300 4726 6304 4719 6308 4711 6311 4704 6315 4696 6319 4689
	 6322 4682 6326 4674 6330 4667 6334 4660 6337 4653 6341 4646
	 6345 4639 6349 4632 6352 4625 6356 4618 6360 4612 6363 4605
	 6367 4598 6371 4592 6375 4585 6378 4579 6382 4572 6386 4566
	 6389 4560 6393 4553 6397 4547 6401 4541 6404 4534 6408 4528
	 6412 4522 6416 4516 6419 4510 6423 4504 6427 4498 6430 4492
	 6434 4486 6438 4480 6442 4474 6445 4468 6449 4462 6453 4456
	 6456 4450 6460 4444 6464 4439 6468 4433 6471 4427 6475 4421
	 6479 4415 6482 4409 6486 4403 6490 4397 6494 4391 6497 4385
	 6501 4379 6505 4373 6509 4367 6512 4361 6516 4355 6520 4348
	 6523 4342 6527 4336 6531 4330 6535 4323 6538 4317 6542 4311
	 6546 4304 6549 4298 6553 4291 6557 4285 6561 4278 6564 4271
	 6568 4265 6572 4258 6576 4251 6579 4244 6583 4238 6587 4231
	 6590 4224 6594 4217 6598 4210 6602 4203 6605 4195 6609 4188
	 6613 4181 6616 4174 6620 4167 6624 4159 6628 4152 6631 4144
	 6635 4137 6639 4129 6643 4122 6646 4114 6650 4107 6654 4099
	 6657 4091 6661 4083 6665 4076 6669 4068 6672 4060 6676 4052
	 6680 4044 6683 4036 6687 4028 6691 4020 6695 4012 6698 4004
	 6702 3996 6706 3988 6710 3980 6713 3971 6717 3963 6721 3955
	 6724 3947 6728 3938 6732 3930 6736 3922 6739 3913 6743 3905
	 6747 3896 6750 3888 6754 3879 6758 3871 6762 3862 6765 3854
	 6769 3845 6773 3836 6777 3828 6780 3819 6784 3810 6788 3801
	 6791 3793 6795 3784 6799 3775 6803 3766 6806 3757 6810 3748
	 6814 3739 6817 3730 6821 3721 6825 3711 6829 3702 6832 3693
	 6836 3684 6840 3674 6844 3665 6847 3655 6851 3646 6855 3636
	 6858 3626 6862 3617 6866 3607 6870 3597 6873 3587 6877 3577
	 6881 3567 6884 3557 6888 3547 6892 3537 6896 3527 6899 3517
	 6903 3506 6907 3496 6911 3485 6914 3475 6918 3464 6922 3453
	 6925 3443 6929 3432 6933 3421 6937 3410 6940 3399 6944 3388
	 6948 3377 6951 3366 6955 3355 6959 3344 6963 3333 6966 3321
	 6970 3310 6974 3299 6978 3287 6981 3276 6985 3265 6989 3253
	 6992 3242 6996 3230 7000 3219 7004 3207 7007 3196 7011 3185
	 7015 3173 7018 3162 7022 3150 7026 3139 7030 3128 7033 3116
	 7037 3105 7041 3094 7044 3083 7048 3072 7052 3061 7056 3050
	 7059 3039 7063 3028 7067 3018 7071 3007 7074 2997 7078 2987
	 7082 2976 7085 2966 7089 2956 7093 2947 7097 2937 7100 2928
	 7104 2918 7108 2909 7111 2900 7115 2891 7119 2883 7123 2874
	 7126 2866 7130 2858 7134 2851 7138 2843 7141 2836 7145 2829
	 7149 2822 7152 2815 7156 2809 7160 2803 7164 2797 7167 2791
	 7171 2786 7175 2781 7178 2776 7182 2772 7186 2768 7190 2764
	 7193 2760 7197 2757 7201 2754 7205 2751 7208 2748 7212 2746
	 7216 2744 7219 2743 7223 2741 7227 2740 7231 2740 7234 2739
	 7238 2739 7242 2739 7245 2740 7249 2740 7253 2741 7257 2743
	 7260 2744 7264 2746 7268 2748 7272 2750 7275 2753 7279 2756
	 7283 2759 7286 2762 7290 2766 7294 2770 7298 2774 7301 2778
	 7305 2782 7309 2787 7312 2792 7316 2797 7320 2802 7324 2807
	 7327 2813 7331 2819 7335 2824 7339 2830 7342 2836 7346 2842
	 7350 2849 7353 2855 7357 2861 7361 2868 7365 2874 7368 2881
	 7372 2887 7376 2894 7379 2901 7383 2907 7387 2914 7391 2920
	 7394 2927 7398 2933 7402 2940 7406 2946 7409 2953 7413 2959
	 7417 2965 7420 2971 7424 2977 7428 2982 7432 2988 7435 2993
	 7439 2998 7443 3004 7446 3008 7450 3013 7454 3018 7458 3022
	 7461 3026 7465 3030 7469 3033 7473 3036 7476 3040 7480 3042
	 7484 3045 7487 3047 7491 3049 7495 3051 7499 3052 7502 3053
	 7506 3054 7510 3054 7513 3054 7517 3054 7521 3054 7525 3053
	 7528 3052 7532 3050 7536 3048 7540 3046 7543 3043 7547 3041
	 7551 3037 7554 3034 7558 3030 7562 3026 7566 3021 7569 3016
	 7573 3011 7577 3006 7580 3000 7584 2994 7588 2987 7592 2980
	 7595 2973 7599 2966 7603 2958 7606 2950 7610 2942 7614 2934
	 7618 2925 7621 2916 7625 2906 7629 2897 7633 2887 7636 2877
	 7640 2867 7644 2857 7647 2846 7651 2835 7655 2824 7659 2813
	 7662 2802 7666 2790 7670 2779 7673 2767 7677 2755 7681 2744
	 7685 2732 7688 2720 7692 2707 7696 2695 7700 2683 7703 2671
	 7707 2659 7711 2647 7714 2634 7718 2622 7722 2610 7726 2598
	 7729 2586 7733 2574 7737 2562 7740 2550 7744 2539 7748 2527
	 7752 2516 7755 2505 7759 2494 7763 2483 7767 2472 7770 2462
	 7774 2452 7778 2442 7781 2432 7785 2423 7789 2413 7793 2405
	 7796 2396 7800 2388 7804 2379 7807 2372 7811 2364 7815 2357
	 7819 2351 7822 2344 7826 2338 7830 2333 7834 2327 7837 2323
	 7841 2318 7845 2314 7848 2311 7852 2307 7856 2305 7860 2302
	 7863 2301 7867 2299 7871 2298 7874 2298 7878 2298 7882 2298
	 7886 2299 7889 2300 7893 2302 7897 2304 7901 2307 7904 2311
	 7908 2314 7912 2319 7915 2323 7919 2329 7923 2334 7927 2341
	 7930 2347 7934 2355 7938 2362 7941 2370 7945 2379 7949 2388
	 7953 2398 7956 2408 7960 2419 7964 2430 7968 2441 7971 2453
	 7975 2466 7979 2479 7982 2492 7986 2506 7990 2520 7994 2535
	 7997 2550 8001 2565 8005 2581 8008 2598 8012 2614 8016 2632
	 8020 2649 8023 2667 8027 2685 8031 2704 8035 2723 8038 2742
	 8042 2762 8046 2782 8049 2802 8053 2823 8057 2843 8061 2865
	 8064 2886 8068 2908 8072 2930 8075 2952 8079 2974 8083 2997
	 8087 3019 8090 3043 8094 3066 8098 3089 8102 3113 8105 3136
	 8109 3160 8113 3184 8116 3208 8120 3232 8124 3256 8128 3280
	 8131 3305 8135 3329 8139 3354 8142 3378 8146 3403 8150 3427
	 8154 3452 8157 3476 8161 3500 8165 3525 8169 3549 8172 3573
	 8176 3598 8180 3622 8183 3646 8187 3669 8191 3693 8195 3717
	 8198 3740 8202 3764 8206 3787 8209 3810 8213 3833 8217 3855
	 8221 3878 8224 3900 8228 3922 8232 3943 8235 3965 8239 3986
	 8243 4007 8247 4028 8250 4048 8254 4069 8258 4088 8262 4108
	 8265 4127 8269 4146 8273 4165 8276 4183 8280 4201 8284 4219
	 8288 4236 8291 4253 8295 4270 8299 4286 8302 4302 8306 4318
	 8310 4333 8314 4348 8317 4363 8321 4377 8325 4390 8329 4404
	 8332 4417 8336 4429 8340 4442 8343 4453 8347 4465 8351 4476
	 8355 4487 8358 4497 8362 4507 8366 4516 8369 4525 8373 4534
	 8377 4543 8381 4551 8384 4558 8388 4565 8392 4572 8396 4579
	 8399 4585 8403 4590 8407 4596 8410 4601 8414 4605 8418 4610
	 8422 4613 8425 4617 8429 4620 8433 4623 8436 4626 8440 4628
	 8444 4630 8448 4631 8451 4632 8455 4633 8459 4634 8463 4634
	 8466 4634 8470 4634 8474 4633 8477 4632 8481 4631 8485 4630
	 8489 4628 8492 4626 8496 4624 8500 4621 8503 4618 8507 4615
	 8511 4612 8515 4609 8518 4605 8522 4601 8526 4597 8530 4593
	 8533 4589 8537 4584 8541 4579 8544 4574 8548 4569 8552 4564
	 8556 4558 8559 4553 8563 4547 8567 4541 8570 4535 8574 4529
	 8578 4523 8582 4516 8585 4510 8589 4503 8593 4497 8597 4490
	 8600 4483 8604 4476 8608 4469 8611 4462 8615 4455 8619 4448
	 8623 4441 8626 4433 8630 4426 8634 4419 8637 4411 8641 4404
	 8645 4396 8649 4389 8652 4382 8656 4374 8660 4367 8664 4359
	 8667 4352 8671 4344 8675 4337 8678 4330 8682 4322 8686 4315
	 8690 4308 8693 4300 8697 4293 8701 4286 8704 4279 8708 4272
	 8712 4264 8716 4257 8719 4250 8723 4244 8727 4237 8731 4230
	 8734 4223 8738 4217 8742 4210 8745 4204 8749 4197 8753 4191
	 8757 4184 8760 4178 8764 4172 8768 4166 8771 4160 8775 4154
	 8779 4149 8783 4143 8786 4137 8790 4132 8794 4127 8797 4121
	 8801 4116 8805 4111 8809 4106 8812 4101 8816 4097 8820 4092
	 8824 4087 8827 4083 8831 4079 8835 4074 8838 4070 8842 4066
	 8846 4062 8850 4058 8853 4055 8857 4051 8861 4048 8864 4044
	 8868 4041 8872 4038 8876 4035 8879 4032 8883 4029 8887 4026
	 8891 4024 8894 4021 8898 4018 8902 4016 8905 4014 8909 4012
	 8913 4010 8917 4008 8920 4006 8924 4004 8928 4002 8931 4001
	 8935 3999 8939 3998 8943 3996 8946 3995 8950 3994 8954 3993
	 8958 3992 8961 3991 8965 3990 8969 3989 8972 3988 8976 3988
	 8980 3987 8984 3986 8987 3986 8991 3985 8995 3985 8998 3984
	 9002 3984 9006 3984 9010 3983 9013 3983 9017 3983 9021 3983
	 9025 3982 9028 3982 9032 3982 9036 3982 9039 3982 9043 3982
	 9047 3981 9051 3981 9054 3981 9058 3981 9062 3981 9065 3980
	 9069 3980 9073 3980 9077 3980 9080 3979 9084 3979 9088 3978
	 9092 3978 9095 3977 9099 3977 9103 3976 9106 3976 9110 3975
	 9114 3974 9118 3973 9121 3972 9125 3971 9129 3970 9132 3969
	 9136 3968 9140 3966 9144 3965 9147 3963 9151 3962 9155 3960
	 9159 3958 9162 3956 9166 3954 9170 3952 9173 3950 9177 3948
	 9181 3945 9185 3942 9188 3940 9192 3937 9196 3934 9199 3931
	 9203 3928 9207 3924 9211 3921 9214 3917 9218 3914 9222 3910
	 9226 3906 9229 3902 9233 3898 9237 3893 9240 3889 9244 3884
	 9248 3879 9252 3874 9255 3869 9259 3864 9263 3859 9266 3853
	 9270 3848 9274 3842 9278 3836 9281 3830 9285 3824 9289 3818
	 9293 3811 9296 3805 9300 3798 9304 3791 9307 3784 9311 3777
	 9315 3770 9319 3763 9322 3756 9326 3748 9330 3740 9333 3733
	 9337 3725 9341 3717 9345 3709 9348 3700 9352 3692 9356 3684
	 9359 3675 9363 3667 9367 3658 9371 3649 9374 3640 9378 3631
	 9382 3622 9386 3613 9389 3604 9393 3595 9397 3586 9400 3576
	 9404 3567 9408 3557 9412 3548 9415 3538 9419 3528 9423 3519
	 9426 3509 9430 3499 9434 3489 9438 3480 9441 3470 9445 3460
	 9449 3450 9453 3440 9456 3430 9460 3420 9464 3410 9467 3401
	 9471 3391 9475 3381 9479 3371 9482 3361 9486 3351 9490 3342
	 9493 3332 9497 3322 9501 3313 9505 3303 9508 3293 9512 3284
	 9516 3275 9520 3265 9523 3256 9527 3247 9531 3238 9534 3228
	 9538 3220 9542 3211 9546 3202 9549 3193 9553 3185 9557 3176
	 9560 3168 9564 3160 9568 3152 9572 3144 9575 3136 9579 3128
	 9583 3120 9587 3113 9590 3106 9594 3099 9598 3092 9601 3085
	 9605 3078 9609 3072 9613 3065 9616 3059 9620 3053 9624 3048
	 9627 3042 9631 3037 9635 3031 9639 3026 9642 3022 9646 3017
	 9650 3013 9654 3009 9657 3005 9661 3001 9665 2997 9668 2994
	 9672 2991 9676 2988 9680 2986 9683 2984 9687 2982 9691 2980
	 9694 2978 9698 2977 9702 2976 9706 2975 9709 2975 9713 2974
	 9717 2974 9721 2975 9724 2975 9728 2976 9732 2977 9735 2979
	 9739 2980 9743 2982 9747 2985 9750 2987 9754 2990 9758 2993
	 9761 2997 9765 3000 9769 3005 9773 3009 9776 3014 9780 3019
	 9784 3024 9788 3030 9791 3035 9795 3042 9799 3048 9802 3055
	 9806 3062 9810 3070 9814 3078 9817 3086 9821 3095 9825 3103
	 9828 3113 9832 3122 9836 3132 9840 3142 9843 3152 9847 3163
	 9851 3174 9855 3186 9858 3197 9862 3210 9866 3222 9869 3235
	 9873 3248 9877 3261 9881 3275 9884 3289
2 1 0 1 -1 -1 10 0 -1     0.000 0 0 0 0 0 2
	 9884 3289 9888 3303
2 1 2 1 -1 -1 10 0 -1     3.000 0 1 0 0 0 3
	 9212 7370 9212 7370 9212 2090
2 1 0 1 -1 -1 10 0 -1     0.000 0 0 0 0 0 2
	 2448 7370 2343 7370
2 1 0 1 -1 -1 10 0 -1     0.000 0 0 0 0 0 2
	 9888 7370 9993 7370
4 2 -1 0 -1 0 10.000  0.000 4 125.000 225.000 2268 7432 -30\001
2 1 0 1 -1 -1 10 0 -1     0.000 0 0 0 0 0 2
	 2448 6314 2343 6314
2 1 0 1 -1 -1 10 0 -1     0.000 0 0 0 0 0 2
	 9888 6314 9993 6314
4 2 -1 0 -1 0 10.000  0.000 4 125.000 225.000 2268 6376 -20\001
2 1 0 1 -1 -1 10 0 -1     0.000 0 0 0 0 0 2
	 2448 5258 2343 5258
2 1 0 1 -1 -1 10 0 -1     0.000 0 0 0 0 0 2
	 9888 5258 9993 5258
4 2 -1 0 -1 0 10.000  0.000 4 125.000 225.000 2268 5320 -10\001
2 1 0 1 -1 -1 10 0 -1     0.000 0 0 0 0 0 2
	 2448 4202 2343 4202
2 1 0 1 -1 -1 10 0 -1     0.000 0 0 0 0 0 2
	 9888 4202 9993 4202
4 2 -1 0 -1 0 10.000  0.000 4 125.000 75.000 2268 4264 0\001
2 1 0 1 -1 -1 10 0 -1     0.000 0 0 0 0 0 2
	 2448 3146 2343 3146
2 1 0 1 -1 -1 10 0 -1     0.000 0 0 0 0 0 2
	 9888 3146 9993 3146
4 2 -1 0 -1 0 10.000  0.000 4 125.000 150.000 2268 3208 10\001
2 1 0 1 -1 -1 10 0 -1     0.000 0 0 0 0 0 2
	 2448 2090 2343 2090
2 1 0 1 -1 -1 10 0 -1     0.000 0 0 0 0 0 2
	 9888 2090 9993 2090
4 2 -1 0 -1 0 10.000  0.000 4 125.000 150.000 2268 2152 20\001
2 1 0 1 -1 -1 10 0 -1     0.000 0 0 0 0 0 2
	 3056 7370 3056 7475
2 1 0 1 -1 -1 10 0 -1     0.000 0 0 0 0 0 2
	 3056 2090 3056 1985
4 1 -1 0 -1 0 10.000  0.000 4 125.000 300.000 3056 7662 1950\001
2 1 0 1 -1 -1 10 0 -1     0.000 0 0 0 0 0 2
	 4324 7370 4324 7475
2 1 0 1 -1 -1 10 0 -1     0.000 0 0 0 0 0 2
	 4324 2090 4324 1985
4 1 -1 0 -1 0 10.000  0.000 4 125.000 300.000 4324 7662 1952\001
2 1 0 1 -1 -1 10 0 -1     0.000 0 0 0 0 0 2
	 5592 7370 5592 7475
2 1 0 1 -1 -1 10 0 -1     0.000 0 0 0 0 0 2
	 5592 2090 5592 1985
4 1 -1 0 -1 0 10.000  0.000 4 125.000 300.000 5592 7662 1954\001
2 1 0 1 -1 -1 10 0 -1     0.000 0 0 0 0 0 2
	 6860 7370 6860 7475
2 1 0 1 -1 -1 10 0 -1     0.000 0 0 0 0 0 2
	 6860 2090 6860 1985
4 1 -1 0 -1 0 10.000  0.000 4 125.000 300.000 6860 7662 1956\001
2 1 0 1 -1 -1 10 0 -1     0.000 0 0 0 0 0 2
	 8128 7370 8128 7475
2 1 0 1 -1 -1 10 0 -1     0.000 0 0 0 0 0 2
	 8128 2090 8128 1985
4 1 -1 0 -1 0 10.000  0.000 4 125.000 300.000 8128 7662 1958\001
2 1 0 1 -1 -1 10 0 -1     0.000 0 0 0 0 0 2
	 9397 7370 9397 7475
2 1 0 1 -1 -1 10 0 -1     0.000 0 0 0 0 0 2
	 9397 2090 9397 1985
4 1 -1 0 -1 0 10.000  0.000 4 125.000 300.000 9397 7662 1960\001
2 1 0 1 -1 -1 10 0 -1     0.000 0 0 0 0 0 5
	 2448 2090 2448 7370 9888 7370 9888 2090 2448 2090
