#FIG 3.2
Landscape
Center
Inches
Letter
100.00
Single
-2
1200 2
0 32 #000000
0 33 #040404
0 34 #080808
0 35 #0c0c0c
0 36 #101010
0 37 #141414
0 38 #181818
0 39 #1c1c1c
0 40 #202020
0 41 #242424
0 42 #282828
0 43 #2d2d2d
0 44 #313131
0 45 #353535
0 46 #393939
0 47 #3d3d3d
0 48 #414141
0 49 #454545
0 50 #494949
0 51 #4d4d4d
0 52 #515151
0 53 #555555
0 54 #595959
0 55 #5d5d5d
0 56 #616161
0 57 #656565
0 58 #696969
0 59 #6d6d6d
0 60 #717171
0 61 #757575
0 62 #797979
0 63 #7d7d7d
0 64 #828282
0 65 #868686
0 66 #8a8a8a
0 67 #8e8e8e
0 68 #929292
0 69 #969696
0 70 #9a9a9a
0 71 #9e9e9e
0 72 #a2a2a2
0 73 #a6a6a6
0 74 #aaaaaa
0 75 #aeaeae
0 76 #b2b2b2
0 77 #b6b6b6
0 78 #bababa
0 79 #bebebe
0 80 #c2c2c2
0 81 #c6c6c6
0 82 #cacaca
0 83 #cecece
0 84 #d2d2d2
0 85 #d7d7d7
0 86 #dbdbdb
0 87 #dfdfdf
0 88 #e3e3e3
0 89 #e7e7e7
0 90 #ebebeb
0 91 #efefef
0 92 #f3f3f3
0 93 #f7f7f7
0 94 #fbfbfb
0 95 #ffffff
2 3 0 0 -1 -1 10 0 20     0.000 0 0 0 0 0 5
	 2448 7370 2448 2090 9888 2090 9888 7370 2448 7370
2 1 0 1 -1 -1 10 0 -1     0.000 0 0 0 0 0 5
	 2448 2090 2448 7370 9888 7370 9888 2090 2448 2090
4 1 -1 0 -1 0 10.000  0.000 4 125.000 2625.000 6168 1964 QQ uncertainty plot for component 5\001
2 3 0 0 -1 -1 10 0 20     0.000 0 0 0 0 0 260
	 2448 5947 2448 5947 2865 5850 3129 5776 3324 5709 3478 5658
	 3612 5620 3722 5589 3829 5553 3925 5524 4006 5489 4084 5463
	 4158 5440 4226 5415 4291 5389 4353 5371 4414 5352 4473 5333
	 4530 5310 4581 5293 4631 5274 4680 5254 4728 5232 4775 5215
	 4819 5195 4862 5184 4906 5164 4946 5152 4991 5139 5030 5120
	 5070 5106 5111 5093 5149 5076 5186 5061 5223 5047 5258 5036
	 5294 5022 5329 5002 5364 4989 5399 4976 5433 4965 5467 4947
	 5498 4932 5531 4920 5564 4905 5597 4895 5630 4876 5662 4863
	 5695 4851 5725 4840 5756 4831 5786 4817 5816 4804 5846 4786
	 5875 4774 5906 4760 5936 4749 5966 4733 5995 4718 6024 4710
	 6053 4697 6084 4684 6115 4671 6145 4658 6174 4646 6204 4635
	 6233 4621 6263 4607 6292 4594 6320 4578 6349 4565 6379 4553
	 6409 4535 6441 4521 6470 4508 6499 4495 6528 4484 6559 4469
	 6588 4447 6619 4432 6650 4421 6682 4405 6714 4393 6745 4375
	 6777 4360 6809 4346 6842 4331 6874 4316 6906 4295 6940 4283
	 6973 4268 7006 4252 7042 4230 7076 4215 7110 4199 7146 4181
	 7183 4159 7220 4140 7256 4117 7295 4097 7334 4074 7374 4057
	 7416 4039 7457 4012 7501 3998 7543 3971 7588 3952 7636 3917
	 7682 3900 7730 3873 7777 3843 7828 3812 7877 3782 7930 3758
	 7986 3724 8044 3685 8102 3643 8166 3610 8235 3567 8304 3538
	 8382 3486 8467 3426 8556 3380 8658 3323 8772 3250 8903 3162
	 9063 3054 9253 2940 9512 2675 9888 2461 9888 3498 9512 3599
	 9253 3669 9063 3729 8903 3780 8772 3815 8658 3856 8556 3893
	 8467 3928 8382 3960 8304 3987 8235 4023 8166 4041 8102 4065
	 8044 4085 7986 4108 7930 4125 7877 4147 7828 4165 7777 4181
	 7730 4200 7682 4219 7636 4236 7588 4252 7543 4267 7501 4285
	 7457 4307 7416 4323 7374 4339 7334 4353 7295 4368 7256 4387
	 7220 4399 7183 4412 7146 4425 7110 4442 7076 4456 7042 4471
	 7006 4487 6973 4495 6940 4506 6906 4520 6874 4538 6842 4549
	 6809 4562 6777 4569 6745 4585 6714 4598 6682 4616 6650 4628
	 6619 4645 6588 4656 6559 4672 6528 4686 6499 4698 6470 4711
	 6441 4722 6409 4737 6379 4750 6349 4766 6320 4777 6292 4793
	 6263 4809 6233 4823 6204 4837 6174 4852 6145 4865 6115 4877
	 6084 4888 6053 4907 6024 4916 5995 4931 5966 4942 5936 4960
	 5906 4979 5875 4989 5846 5003 5816 5014 5786 5036 5756 5054
	 5725 5070 5695 5080 5662 5098 5630 5116 5597 5137 5564 5152
	 5531 5170 5498 5186 5467 5198 5433 5211 5399 5230 5364 5244
	 5329 5262 5294 5277 5258 5298 5223 5314 5186 5336 5149 5352
	 5111 5369 5070 5387 5030 5411 4991 5430 4946 5445 4906 5474
	 4862 5498 4819 5515 4775 5534 4728 5564 4680 5588 4631 5609
	 4581 5643 4530 5674 4473 5696 4414 5728 4353 5763 4291 5789
	 4226 5836 4158 5865 4084 5920 4006 5978 3925 6025 3829 6081
	 3722 6139 3612 6202 3478 6297 3324 6404 3129 6540 2865 6746
	 2448 6982 2448 5947
2 1 0 1 -1 -1 10 0 -1     0.000 0 0 0 0 0 259
	 2448 5947 2448 5947 2865 5850 3129 5776 3324 5709 3478 5658
	 3612 5620 3722 5589 3829 5553 3925 5524 4006 5489 4084 5463
	 4158 5440 4226 5415 4291 5389 4353 5371 4414 5352 4473 5333
	 4530 5310 4581 5293 4631 5274 4680 5254 4728 5232 4775 5215
	 4819 5195 4862 5184 4906 5164 4946 5152 4991 5139 5030 5120
	 5070 5106 5111 5093 5149 5076 5186 5061 5223 5047 5258 5036
	 5294 5022 5329 5002 5364 4989 5399 4976 5433 4965 5467 4947
	 5498 4932 5531 4920 5564 4905 5597 4895 5630 4876 5662 4863
	 5695 4851 5725 4840 5756 4831 5786 4817 5816 4804 5846 4786
	 5875 4774 5906 4760 5936 4749 5966 4733 5995 4718 6024 4710
	 6053 4697 6084 4684 6115 4671 6145 4658 6174 4646 6204 4635
	 6233 4621 6263 4607 6292 4594 6320 4578 6349 4565 6379 4553
	 6409 4535 6441 4521 6470 4508 6499 4495 6528 4484 6559 4469
	 6588 4447 6619 4432 6650 4421 6682 4405 6714 4393 6745 4375
	 6777 4360 6809 4346 6842 4331 6874 4316 6906 4295 6940 4283
	 6973 4268 7006 4252 7042 4230 7076 4215 7110 4199 7146 4181
	 7183 4159 7220 4140 7256 4117 7295 4097 7334 4074 7374 4057
	 7416 4039 7457 4012 7501 3998 7543 3971 7588 3952 7636 3917
	 7682 3900 7730 3873 7777 3843 7828 3812 7877 3782 7930 3758
	 7986 3724 8044 3685 8102 3643 8166 3610 8235 3567 8304 3538
	 8382 3486 8467 3426 8556 3380 8658 3323 8772 3250 8903 3162
	 9063 3054 9253 2940 9512 2675 9888 2461 9888 3498 9512 3599
	 9253 3669 9063 3729 8903 3780 8772 3815 8658 3856 8556 3893
	 8467 3928 8382 3960 8304 3987 8235 4023 8166 4041 8102 4065
	 8044 4085 7986 4108 7930 4125 7877 4147 7828 4165 7777 4181
	 7730 4200 7682 4219 7636 4236 7588 4252 7543 4267 7501 4285
	 7457 4307 7416 4323 7374 4339 7334 4353 7295 4368 7256 4387
	 7220 4399 7183 4412 7146 4425 7110 4442 7076 4456 7042 4471
	 7006 4487 6973 4495 6940 4506 6906 4520 6874 4538 6842 4549
	 6809 4562 6777 4569 6745 4585 6714 4598 6682 4616 6650 4628
	 6619 4645 6588 4656 6559 4672 6528 4686 6499 4698 6470 4711
	 6441 4722 6409 4737 6379 4750 6349 4766 6320 4777 6292 4793
	 6263 4809 6233 4823 6204 4837 6174 4852 6145 4865 6115 4877
	 6084 4888 6053 4907 6024 4916 5995 4931 5966 4942 5936 4960
	 5906 4979 5875 4989 5846 5003 5816 5014 5786 5036 5756 5054
	 5725 5070 5695 5080 5662 5098 5630 5116 5597 5137 5564 5152
	 5531 5170 5498 5186 5467 5198 5433 5211 5399 5230 5364 5244
	 5329 5262 5294 5277 5258 5298 5223 5314 5186 5336 5149 5352
	 5111 5369 5070 5387 5030 5411 4991 5430 4946 5445 4906 5474
	 4862 5498 4819 5515 4775 5534 4728 5564 4680 5588 4631 5609
	 4581 5643 4530 5674 4473 5696 4414 5728 4353 5763 4291 5789
	 4226 5836 4158 5865 4084 5920 4006 5978 3925 6025 3829 6081
	 3722 6139 3612 6202 3478 6297 3324 6404 3129 6540 2865 6746
	 2448 6982
2 1 0 1 -1 -1 10 0 -1     0.000 0 0 0 0 0 130
	 2448 6416 2448 6416 2865 6258 3129 6127 3324 6040 3478 5965
	 3612 5902 3722 5852 3829 5805 3925 5763 4006 5723 4084 5685
	 4158 5651 4226 5622 4291 5591 4353 5564 4414 5537 4473 5511
	 4530 5488 4581 5464 4631 5440 4680 5418 4728 5397 4775 5376
	 4819 5355 4862 5335 4906 5316 4946 5297 4991 5280 5030 5262
	 5070 5244 5111 5227 5149 5210 5186 5194 5223 5177 5258 5161
	 5294 5145 5329 5127 5364 5111 5399 5096 5433 5080 5467 5065
	 5498 5051 5531 5037 5564 5022 5597 5007 5630 4992 5662 4977
	 5695 4963 5725 4949 5756 4935 5786 4921 5816 4907 5846 4893
	 5875 4880 5906 4866 5936 4852 5966 4838 5995 4825 6024 4811
	 6053 4798 6084 4784 6115 4771 6145 4758 6174 4746 6204 4733
	 6233 4720 6263 4706 6292 4692 6320 4678 6349 4664 6379 4651
	 6409 4637 6441 4623 6470 4609 6499 4595 6528 4582 6559 4568
	 6588 4554 6619 4540 6650 4526 6682 4513 6714 4498 6745 4484
	 6777 4470 6809 4456 6842 4442 6874 4428 6906 4413 6940 4398
	 6973 4383 7006 4368 7042 4351 7076 4336 7110 4320 7146 4303
	 7183 4287 7220 4271 7256 4255 7295 4238 7334 4220 7374 4203
	 7416 4185 7457 4167 7501 4147 7543 4126 7588 4106 7636 4086
	 7682 4066 7730 4044 7777 4021 7828 3999 7877 3975 7930 3951
	 7986 3925 8044 3899 8102 3870 8166 3840 8235 3809 8304 3775
	 8382 3740 8467 3702 8556 3657 8658 3612 8772 3559 8903 3497
	 9063 3424 9253 3333 9512 3198 9888 3047
2 1 0 1 -1 -1 10 0 -1     0.000 0 0 0 0 0 130
	 2448 6404 2448 6404 2865 6244 3129 6108 3324 6020 3478 5946
	 3612 5886 3722 5833 3829 5787 3925 5745 4006 5706 4084 5671
	 4158 5640 4226 5608 4291 5578 4353 5551 4414 5524 4473 5499
	 4530 5476 4581 5453 4631 5431 4680 5408 4728 5386 4775 5367
	 4819 5346 4862 5327 4906 5308 4946 5290 4991 5272 5030 5254
	 5070 5236 5111 5220 5149 5203 5186 5187 5223 5170 5258 5154
	 5294 5139 5329 5123 5364 5108 5399 5093 5433 5078 5467 5063
	 5498 5048 5531 5035 5564 5020 5597 5006 5630 4992 5662 4978
	 5695 4964 5725 4950 5756 4936 5786 4922 5816 4909 5846 4895
	 5875 4881 5906 4868 5936 4854 5966 4839 5995 4826 6024 4812
	 6053 4799 6084 4786 6115 4772 6145 4760 6174 4746 6204 4732
	 6233 4718 6263 4706 6292 4692 6320 4679 6349 4665 6379 4652
	 6409 4639 6441 4625 6470 4612 6499 4598 6528 4585 6559 4571
	 6588 4557 6619 4543 6650 4529 6682 4515 6714 4501 6745 4487
	 6777 4473 6809 4459 6842 4445 6874 4429 6906 4415 6940 4400
	 6973 4384 7006 4370 7042 4354 7076 4339 7110 4324 7146 4308
	 7183 4291 7220 4274 7256 4258 7295 4241 7334 4224 7374 4206
	 7416 4187 7457 4169 7501 4150 7543 4130 7588 4111 7636 4091
	 7682 4070 7730 4048 7777 4025 7828 4003 7877 3979 7930 3955
	 7986 3931 8044 3903 8102 3874 8166 3845 8235 3813 8304 3781
	 8382 3746 8467 3709 8556 3667 8658 3622 8772 3571 8903 3509
	 9063 3437 9253 3352 9512 3216 9888 3064
2 1 2 1 -1 -1 10 0 -1     3.000 0 1 0 0 0 130
	 2448 5949 2448 5949 2865 5862 3129 5780 3324 5710 3478 5656
	 3612 5615 3722 5579 3829 5545 3925 5508 4006 5478 4084 5454
	 4158 5435 4226 5407 4291 5380 4353 5362 4414 5336 4473 5319
	 4530 5304 4581 5282 4631 5263 4680 5247 4728 5231 4775 5211
	 4819 5191 4862 5180 4906 5164 4946 5149 4991 5132 5030 5117
	 5070 5102 5111 5090 5149 5070 5186 5056 5223 5042 5258 5027
	 5294 5015 5329 5000 5364 4984 5399 4973 5433 4956 5467 4944
	 5498 4930 5531 4916 5564 4906 5597 4893 5630 4882 5662 4867
	 5695 4852 5725 4840 5756 4825 5786 4813 5816 4804 5846 4793
	 5875 4783 5906 4769 5936 4756 5966 4743 5995 4731 6024 4716
	 6053 4700 6084 4690 6115 4675 6145 4662 6174 4644 6204 4634
	 6233 4621 6263 4609 6292 4593 6320 4579 6349 4567 6379 4553
	 6409 4537 6441 4523 6470 4513 6499 4494 6528 4481 6559 4468
	 6588 4451 6619 4438 6650 4422 6682 4410 6714 4395 6745 4376
	 6777 4359 6809 4344 6842 4329 6874 4312 6906 4291 6940 4275
	 6973 4261 7006 4240 7042 4229 7076 4213 7110 4188 7146 4171
	 7183 4153 7220 4133 7256 4117 7295 4097 7334 4079 7374 4065
	 7416 4038 7457 4020 7501 3993 7543 3970 7588 3948 7636 3923
	 7682 3905 7730 3875 7777 3842 7828 3811 7877 3777 7930 3753
	 7986 3721 8044 3688 8102 3642 8166 3607 8235 3568 8304 3529
	 8382 3486 8467 3447 8556 3396 8658 3321 8772 3272 8903 3179
	 9063 3097 9253 2961 9512 2717 9888 2541
2 1 2 1 -1 -1 10 0 -1     3.000 0 1 0 0 0 130
	 2448 6996 2448 6996 2865 6778 3129 6522 3324 6382 3478 6262
	 3612 6198 3722 6106 3829 6032 3925 5986 4006 5934 4084 5890
	 4158 5864 4226 5825 4291 5784 4353 5760 4414 5731 4473 5698
	 4530 5667 4581 5647 4631 5618 4680 5593 4728 5570 4775 5537
	 4819 5517 4862 5487 4906 5460 4946 5442 4991 5426 5030 5409
	 5070 5378 5111 5363 5149 5343 5186 5328 5223 5313 5258 5295
	 5294 5279 5329 5260 5364 5248 5399 5230 5433 5215 5467 5192
	 5498 5182 5531 5166 5564 5146 5597 5134 5630 5118 5662 5103
	 5695 5087 5725 5071 5756 5052 5786 5035 5816 5023 5846 5006
	 5875 4991 5906 4972 5936 4961 5966 4941 5995 4929 6024 4913
	 6053 4900 6084 4882 6115 4868 6145 4853 6174 4838 6204 4827
	 6233 4814 6263 4803 6292 4788 6320 4779 6349 4762 6379 4746
	 6409 4730 6441 4721 6470 4709 6499 4693 6528 4684 6559 4670
	 6588 4660 6619 4645 6650 4632 6682 4617 6714 4604 6745 4591
	 6777 4582 6809 4573 6842 4560 6874 4545 6906 4533 6940 4518
	 6973 4502 7006 4489 7042 4470 7076 4457 7110 4445 7146 4429
	 7183 4418 7220 4402 7256 4390 7295 4375 7334 4360 7374 4347
	 7416 4333 7457 4318 7501 4301 7543 4281 7588 4273 7636 4255
	 7682 4239 7730 4218 7777 4201 7828 4183 7877 4160 7930 4146
	 7986 4126 8044 4098 8102 4080 8166 4059 8235 4033 8304 4008
	 8382 3990 8467 3955 8556 3906 8658 3871 8772 3838 8903 3795
	 9063 3736 9253 3684 9512 3615 9888 3526
2 1 0 1 -1 -1 10 0 -1     0.000 0 0 0 0 0 2
	 2448 7370 2343 7370
2 1 0 1 -1 -1 10 0 -1     0.000 0 0 0 0 0 2
	 9888 7370 9993 7370
4 2 -1 0 -1 0 10.000  0.000 4 125.000 150.000 2268 7432 -4\001
2 1 0 1 -1 -1 10 0 -1     0.000 0 0 0 0 0 2
	 2448 6710 2343 6710
2 1 0 1 -1 -1 10 0 -1     0.000 0 0 0 0 0 2
	 9888 6710 9993 6710
4 2 -1 0 -1 0 10.000  0.000 4 125.000 150.000 2268 6772 -3\001
2 1 0 1 -1 -1 10 0 -1     0.000 0 0 0 0 0 2
	 2448 6050 2343 6050
2 1 0 1 -1 -1 10 0 -1     0.000 0 0 0 0 0 2
	 9888 6050 9993 6050
4 2 -1 0 -1 0 10.000  0.000 4 125.000 150.000 2268 6112 -2\001
2 1 0 1 -1 -1 10 0 -1     0.000 0 0 0 0 0 2
	 2448 5390 2343 5390
2 1 0 1 -1 -1 10 0 -1     0.000 0 0 0 0 0 2
	 9888 5390 9993 5390
4 2 -1 0 -1 0 10.000  0.000 4 125.000 150.000 2268 5452 -1\001
2 1 0 1 -1 -1 10 0 -1     0.000 0 0 0 0 0 2
	 2448 4730 2343 4730
2 1 0 1 -1 -1 10 0 -1     0.000 0 0 0 0 0 2
	 9888 4730 9993 4730
4 2 -1 0 -1 0 10.000  0.000 4 125.000 75.000 2268 4792 0\001
2 1 0 1 -1 -1 10 0 -1     0.000 0 0 0 0 0 2
	 2448 4070 2343 4070
2 1 0 1 -1 -1 10 0 -1     0.000 0 0 0 0 0 2
	 9888 4070 9993 4070
4 2 -1 0 -1 0 10.000  0.000 4 125.000 75.000 2268 4132 1\001
2 1 0 1 -1 -1 10 0 -1     0.000 0 0 0 0 0 2
	 2448 3410 2343 3410
2 1 0 1 -1 -1 10 0 -1     0.000 0 0 0 0 0 2
	 9888 3410 9993 3410
4 2 -1 0 -1 0 10.000  0.000 4 125.000 75.000 2268 3472 2\001
2 1 0 1 -1 -1 10 0 -1     0.000 0 0 0 0 0 2
	 2448 2750 2343 2750
2 1 0 1 -1 -1 10 0 -1     0.000 0 0 0 0 0 2
	 9888 2750 9993 2750
4 2 -1 0 -1 0 10.000  0.000 4 125.000 75.000 2268 2812 3\001
2 1 0 1 -1 -1 10 0 -1     0.000 0 0 0 0 0 2
	 2448 2090 2343 2090
2 1 0 1 -1 -1 10 0 -1     0.000 0 0 0 0 0 2
	 9888 2090 9993 2090
4 2 -1 0 -1 0 10.000  0.000 4 125.000 75.000 2268 2152 4\001
2 1 0 1 -1 -1 10 0 -1     0.000 0 0 0 0 0 2
	 2458 7370 2458 7475
2 1 0 1 -1 -1 10 0 -1     0.000 0 0 0 0 0 2
	 2458 2090 2458 1985
4 1 -1 0 -1 0 10.000  0.000 4 125.000 300.000 2458 7662 -2.5\001
2 1 0 1 -1 -1 10 0 -1     0.000 0 0 0 0 0 2
	 3206 7370 3206 7475
2 1 0 1 -1 -1 10 0 -1     0.000 0 0 0 0 0 2
	 3206 2090 3206 1985
4 1 -1 0 -1 0 10.000  0.000 4 125.000 150.000 3206 7662 -2\001
2 1 0 1 -1 -1 10 0 -1     0.000 0 0 0 0 0 2
	 3955 7370 3955 7475
2 1 0 1 -1 -1 10 0 -1     0.000 0 0 0 0 0 2
	 3955 2090 3955 1985
4 1 -1 0 -1 0 10.000  0.000 4 125.000 300.000 3955 7662 -1.5\001
2 1 0 1 -1 -1 10 0 -1     0.000 0 0 0 0 0 2
	 4703 7370 4703 7475
2 1 0 1 -1 -1 10 0 -1     0.000 0 0 0 0 0 2
	 4703 2090 4703 1985
4 1 -1 0 -1 0 10.000  0.000 4 125.000 150.000 4703 7662 -1\001
2 1 0 1 -1 -1 10 0 -1     0.000 0 0 0 0 0 2
	 5452 7370 5452 7475
2 1 0 1 -1 -1 10 0 -1     0.000 0 0 0 0 0 2
	 5452 2090 5452 1985
4 1 -1 0 -1 0 10.000  0.000 4 125.000 300.000 5452 7662 -0.5\001
2 1 0 1 -1 -1 10 0 -1     0.000 0 0 0 0 0 2
	 6201 7370 6201 7475
2 1 0 1 -1 -1 10 0 -1     0.000 0 0 0 0 0 2
	 6201 2090 6201 1985
4 1 -1 0 -1 0 10.000  0.000 4 125.000 75.000 6201 7662 0\001
2 1 0 1 -1 -1 10 0 -1     0.000 0 0 0 0 0 2
	 6949 7370 6949 7475
2 1 0 1 -1 -1 10 0 -1     0.000 0 0 0 0 0 2
	 6949 2090 6949 1985
4 1 -1 0 -1 0 10.000  0.000 4 125.000 225.000 6949 7662 0.5\001
2 1 0 1 -1 -1 10 0 -1     0.000 0 0 0 0 0 2
	 7698 7370 7698 7475
2 1 0 1 -1 -1 10 0 -1     0.000 0 0 0 0 0 2
	 7698 2090 7698 1985
4 1 -1 0 -1 0 10.000  0.000 4 125.000 75.000 7698 7662 1\001
2 1 0 1 -1 -1 10 0 -1     0.000 0 0 0 0 0 2
	 8446 7370 8446 7475
2 1 0 1 -1 -1 10 0 -1     0.000 0 0 0 0 0 2
	 8446 2090 8446 1985
4 1 -1 0 -1 0 10.000  0.000 4 125.000 225.000 8446 7662 1.5\001
2 1 0 1 -1 -1 10 0 -1     0.000 0 0 0 0 0 2
	 9195 7370 9195 7475
2 1 0 1 -1 -1 10 0 -1     0.000 0 0 0 0 0 2
	 9195 2090 9195 1985
4 1 -1 0 -1 0 10.000  0.000 4 125.000 75.000 9195 7662 2\001
2 1 0 1 -1 -1 10 0 -1     0.000 0 0 0 0 0 5
	 2448 2090 2448 7370 9888 7370 9888 2090 2448 2090
