#FIG 3.2
Landscape
Center
Inches
Letter
100.00
Single
-2
1200 2
0 32 #000000
0 33 #040404
0 34 #080808
0 35 #0c0c0c
0 36 #101010
0 37 #141414
0 38 #181818
0 39 #1c1c1c
0 40 #202020
0 41 #242424
0 42 #282828
0 43 #2d2d2d
0 44 #313131
0 45 #353535
0 46 #393939
0 47 #3d3d3d
0 48 #414141
0 49 #454545
0 50 #494949
0 51 #4d4d4d
0 52 #515151
0 53 #555555
0 54 #595959
0 55 #5d5d5d
0 56 #616161
0 57 #656565
0 58 #696969
0 59 #6d6d6d
0 60 #717171
0 61 #757575
0 62 #797979
0 63 #7d7d7d
0 64 #828282
0 65 #868686
0 66 #8a8a8a
0 67 #8e8e8e
0 68 #929292
0 69 #969696
0 70 #9a9a9a
0 71 #9e9e9e
0 72 #a2a2a2
0 73 #a6a6a6
0 74 #aaaaaa
0 75 #aeaeae
0 76 #b2b2b2
0 77 #b6b6b6
0 78 #bababa
0 79 #bebebe
0 80 #c2c2c2
0 81 #c6c6c6
0 82 #cacaca
0 83 #cecece
0 84 #d2d2d2
0 85 #d7d7d7
0 86 #dbdbdb
0 87 #dfdfdf
0 88 #e3e3e3
0 89 #e7e7e7
0 90 #ebebeb
0 91 #efefef
0 92 #f3f3f3
0 93 #f7f7f7
0 94 #fbfbfb
0 95 #ffffff
2 3 0 0 -1 -1 10 0 20     0.000 0 0 0 0 0 5
	 2448 7370 2448 2090 9888 2090 9888 7370 2448 7370
2 1 0 1 -1 -1 10 0 -1     0.000 0 0 0 0 0 5
	 2448 2090 2448 7370 9888 7370 9888 2090 2448 2090
4 1 -1 0 -1 0 10.000  1.571 4 125.000 1275.000 1936 4730 Power / frequency\001
4 1 -1 0 -1 0 10.000  0.000 4 125.000 1500.000 6168 7849 Normalised frequency\001
4 1 -1 0 -1 0 10.000  0.000 4 125.000 3300.000 6168 1964 Periodogram uncertainty plot for component 5\001
2 3 0 0 -1 -1 10 0 20     0.000 0 0 0 0 0 260
	 2448 3484 2448 3484 2506 3296 2564 3276 2622 3203 2681 3143
	 2739 3069 2797 2955 2855 2876 2913 2797 2971 2718 3029 2659
	 3087 2581 3146 2526 3204 2486 3262 2409 3320 2375 3378 2366
	 3436 2307 3494 2304 3552 2279 3611 2270 3669 2287 3727 2270
	 3785 2247 3843 2291 3901 2318 3959 2340 4017 2353 4076 2373
	 4134 2431 4192 2465 4250 2514 4308 2594 4366 2604 4424 2659
	 4482 2705 4541 2704 4599 2750 4657 2746 4715 2744 4773 2769
	 4831 2779 4889 2780 4947 2761 5006 2791 5064 2825 5122 2816
	 5180 2862 5238 2892 5296 2919 5354 2937 5412 3015 5471 3056
	 5529 3092 5587 3152 5645 3172 5703 3223 5761 3270 5819 3285
	 5877 3322 5936 3356 5994 3387 6052 3404 6110 3409 6168 3413
	 6226 3453 6284 3470 6342 3493 6401 3493 6459 3517 6517 3552
	 6575 3595 6633 3651 6691 3683 6749 3728 6807 3794 6866 3855
	 6924 3877 6982 3874 7040 3955 7098 3966 7156 4000 7214 4010
	 7272 4032 7331 4042 7389 4055 7447 4116 7505 4112 7563 4117
	 7621 4145 7679 4131 7737 4206 7796 4187 7854 4241 7912 4202
	 7970 4286 8028 4287 8086 4344 8144 4337 8202 4396 8261 4348
	 8319 4418 8377 4403 8435 4446 8493 4424 8551 4456 8609 4396
	 8667 4454 8726 4422 8784 4509 8842 4410 8900 4508 8958 4448
	 9016 4501 9074 4440 9132 4520 9191 4446 9249 4526 9307 4449
	 9365 4538 9423 4475 9481 4540 9539 4472 9597 4541 9656 4469
	 9714 4541 9772 4472 9830 4544 9888 4704 9888 6993 9830 6326
	 9772 6365 9714 6271 9656 6358 9597 6253 9539 6209 9481 6184
	 9423 6274 9365 6245 9307 6245 9249 6108 9191 6161 9132 6061
	 9074 6048 9016 6107 8958 6052 8900 6090 8842 6019 8784 6013
	 8726 6032 8667 5904 8609 5924 8551 5918 8493 5942 8435 5835
	 8377 5950 8319 5861 8261 5642 8202 5821 8144 5754 8086 5775
	 8028 5620 7970 5634 7912 5674 7854 5577 7796 5538 7737 5601
	 7679 5576 7621 5508 7563 5415 7505 5466 7447 5426 7389 5414
	 7331 5365 7272 5386 7214 5384 7156 5290 7098 5317 7040 5232
	 6982 5214 6924 5179 6866 5141 6807 5152 6749 5017 6691 4987
	 6633 4858 6575 4906 6517 4852 6459 4845 6401 4894 6342 4831
	 6284 4844 6226 4758 6168 4817 6110 4751 6052 4709 5994 4707
	 5936 4671 5877 4677 5819 4593 5761 4626 5703 4547 5645 4411
	 5587 4454 5529 4476 5471 4362 5412 4330 5354 4258 5296 4320
	 5238 4213 5180 4206 5122 4168 5064 4143 5006 4108 4947 4096
	 4889 4156 4831 4079 4773 4063 4715 4025 4657 4030 4599 4047
	 4541 4154 4482 3955 4424 3905 4366 3959 4308 3928 4250 3922
	 4192 3878 4134 3775 4076 3678 4017 3744 3959 3677 3901 3714
	 3843 3569 3785 3626 3727 3621 3669 3625 3611 3614 3552 3589
	 3494 3690 3436 3696 3378 3655 3320 3698 3262 3814 3204 3777
	 3146 3841 3087 3933 3029 3936 2971 3938 2913 4133 2855 4188
	 2797 4268 2739 4468 2681 4459 2622 4601 2564 4718 2506 4635
	 2448 5848 2448 3484
2 1 0 1 -1 -1 10 0 -1     0.000 0 0 0 0 0 259
	 2448 3484 2448 3484 2506 3296 2564 3276 2622 3203 2681 3143
	 2739 3069 2797 2955 2855 2876 2913 2797 2971 2718 3029 2659
	 3087 2581 3146 2526 3204 2486 3262 2409 3320 2375 3378 2366
	 3436 2307 3494 2304 3552 2279 3611 2270 3669 2287 3727 2270
	 3785 2247 3843 2291 3901 2318 3959 2340 4017 2353 4076 2373
	 4134 2431 4192 2465 4250 2514 4308 2594 4366 2604 4424 2659
	 4482 2705 4541 2704 4599 2750 4657 2746 4715 2744 4773 2769
	 4831 2779 4889 2780 4947 2761 5006 2791 5064 2825 5122 2816
	 5180 2862 5238 2892 5296 2919 5354 2937 5412 3015 5471 3056
	 5529 3092 5587 3152 5645 3172 5703 3223 5761 3270 5819 3285
	 5877 3322 5936 3356 5994 3387 6052 3404 6110 3409 6168 3413
	 6226 3453 6284 3470 6342 3493 6401 3493 6459 3517 6517 3552
	 6575 3595 6633 3651 6691 3683 6749 3728 6807 3794 6866 3855
	 6924 3877 6982 3874 7040 3955 7098 3966 7156 4000 7214 4010
	 7272 4032 7331 4042 7389 4055 7447 4116 7505 4112 7563 4117
	 7621 4145 7679 4131 7737 4206 7796 4187 7854 4241 7912 4202
	 7970 4286 8028 4287 8086 4344 8144 4337 8202 4396 8261 4348
	 8319 4418 8377 4403 8435 4446 8493 4424 8551 4456 8609 4396
	 8667 4454 8726 4422 8784 4509 8842 4410 8900 4508 8958 4448
	 9016 4501 9074 4440 9132 4520 9191 4446 9249 4526 9307 4449
	 9365 4538 9423 4475 9481 4540 9539 4472 9597 4541 9656 4469
	 9714 4541 9772 4472 9830 4544 9888 4704 9888 6993 9830 6326
	 9772 6365 9714 6271 9656 6358 9597 6253 9539 6209 9481 6184
	 9423 6274 9365 6245 9307 6245 9249 6108 9191 6161 9132 6061
	 9074 6048 9016 6107 8958 6052 8900 6090 8842 6019 8784 6013
	 8726 6032 8667 5904 8609 5924 8551 5918 8493 5942 8435 5835
	 8377 5950 8319 5861 8261 5642 8202 5821 8144 5754 8086 5775
	 8028 5620 7970 5634 7912 5674 7854 5577 7796 5538 7737 5601
	 7679 5576 7621 5508 7563 5415 7505 5466 7447 5426 7389 5414
	 7331 5365 7272 5386 7214 5384 7156 5290 7098 5317 7040 5232
	 6982 5214 6924 5179 6866 5141 6807 5152 6749 5017 6691 4987
	 6633 4858 6575 4906 6517 4852 6459 4845 6401 4894 6342 4831
	 6284 4844 6226 4758 6168 4817 6110 4751 6052 4709 5994 4707
	 5936 4671 5877 4677 5819 4593 5761 4626 5703 4547 5645 4411
	 5587 4454 5529 4476 5471 4362 5412 4330 5354 4258 5296 4320
	 5238 4213 5180 4206 5122 4168 5064 4143 5006 4108 4947 4096
	 4889 4156 4831 4079 4773 4063 4715 4025 4657 4030 4599 4047
	 4541 4154 4482 3955 4424 3905 4366 3959 4308 3928 4250 3922
	 4192 3878 4134 3775 4076 3678 4017 3744 3959 3677 3901 3714
	 3843 3569 3785 3626 3727 3621 3669 3625 3611 3614 3552 3589
	 3494 3690 3436 3696 3378 3655 3320 3698 3262 3814 3204 3777
	 3146 3841 3087 3933 3029 3936 2971 3938 2913 4133 2855 4188
	 2797 4268 2739 4468 2681 4459 2622 4601 2564 4718 2506 4635
	 2448 5848
2 1 0 1 -1 -1 10 0 -1     0.000 0 0 0 0 0 130
	 2448 4365 2448 4365 2506 3857 2564 3844 2622 3760 2681 3692
	 2739 3601 2797 3514 2855 3412 2913 3345 2971 3251 3029 3192
	 3087 3125 3146 3070 3204 3039 3262 2996 3320 2927 3378 2882
	 3436 2873 3494 2865 3552 2829 3611 2822 3669 2830 3727 2824
	 3785 2834 3843 2832 3901 2866 3959 2899 4017 2919 4076 2928
	 4134 2967 4192 3042 4250 3080 4308 3143 4366 3152 4424 3177
	 4482 3238 4541 3283 4599 3279 4657 3297 4715 3300 4773 3299
	 4831 3319 4889 3311 4947 3311 5006 3332 5064 3351 5122 3370
	 5180 3413 5238 3449 5296 3478 5354 3512 5412 3550 5471 3602
	 5529 3676 5587 3681 5645 3721 5703 3772 5761 3820 5819 3839
	 5877 3889 5936 3893 5994 3940 6052 3957 6110 3956 6168 3979
	 6226 3998 6284 4001 6342 4038 6401 4055 6459 4070 6517 4094
	 6575 4135 6633 4168 6691 4233 6749 4265 6807 4335 6866 4379
	 6924 4423 6982 4423 7040 4482 7098 4525 7156 4537 7214 4566
	 7272 4562 7331 4581 7389 4632 7447 4640 7505 4679 7563 4659
	 7621 4693 7679 4725 7737 4747 7796 4778 7854 4802 7912 4822
	 7970 4854 8028 4871 8086 4917 8144 4954 8202 4969 8261 4966
	 8319 5036 8377 5045 8435 5043 8493 5076 8551 5094 8609 5098
	 8667 5099 8726 5114 8784 5107 8842 5135 8900 5150 8958 5173
	 9016 5168 9074 5168 9132 5199 9191 5212 9249 5214 9307 5241
	 9365 5249 9423 5259 9481 5259 9539 5258 9597 5272 9656 5290
	 9714 5298 9772 5295 9830 5295 9888 5607
2 1 0 1 -1 -1 10 0 -1     0.000 0 0 0 0 0 130
	 2448 4311 2448 4311 2506 3855 2564 3822 2622 3759 2681 3678
	 2739 3613 2797 3513 2855 3437 2913 3355 2971 3296 3029 3184
	 3087 3145 3146 3100 3204 3015 3262 2972 3320 2923 3378 2911
	 3436 2888 3494 2855 3552 2845 3611 2813 3669 2824 3727 2849
	 3785 2844 3843 2852 3901 2893 3959 2884 4017 2915 4076 2984
	 4134 2984 4192 3023 4250 3085 4308 3089 4366 3143 4424 3203
	 4482 3216 4541 3255 4599 3298 4657 3291 4715 3319 4773 3300
	 4831 3320 4889 3338 4947 3335 5006 3325 5064 3361 5122 3372
	 5180 3397 5238 3435 5296 3464 5354 3495 5412 3553 5471 3600
	 5529 3674 5587 3691 5645 3746 5703 3799 5761 3818 5819 3868
	 5877 3879 5936 3918 5994 3938 6052 3935 6110 3966 6168 3956
	 6226 3996 6284 3988 6342 4015 6401 4048 6459 4065 6517 4097
	 6575 4138 6633 4184 6691 4226 6749 4254 6807 4306 6866 4354
	 6924 4397 6982 4441 7040 4481 7098 4526 7156 4547 7214 4579
	 7272 4601 7331 4621 7389 4626 7447 4633 7505 4655 7563 4649
	 7621 4699 7679 4705 7737 4695 7796 4776 7854 4799 7912 4822
	 7970 4831 8028 4869 8086 4924 8144 4972 8202 4983 8261 5004
	 8319 5006 8377 5049 8435 5037 8493 5098 8551 5103 8609 5092
	 8667 5108 8726 5119 8784 5110 8842 5144 8900 5144 8958 5165
	 9016 5178 9074 5187 9132 5181 9191 5225 9249 5237 9307 5251
	 9365 5245 9423 5279 9481 5268 9539 5294 9597 5288 9656 5306
	 9714 5301 9772 5311 9830 5306 9888 5634
2 1 2 1 -1 -1 10 0 -1     3.000 0 1 0 0 0 130
	 2448 3483 2448 3483 2506 3298 2564 3277 2622 3187 2681 3129
	 2739 3058 2797 2962 2855 2884 2913 2778 2971 2736 3029 2652
	 3087 2557 3146 2548 3204 2474 3262 2431 3320 2384 3378 2357
	 3436 2360 3494 2334 3552 2294 3611 2269 3669 2290 3727 2299
	 3785 2279 3843 2289 3901 2334 3959 2335 4017 2362 4076 2417
	 4134 2434 4192 2483 4250 2530 4308 2556 4366 2587 4424 2669
	 4482 2672 4541 2707 4599 2729 4657 2744 4715 2746 4773 2761
	 4831 2756 4889 2800 4947 2795 5006 2778 5064 2801 5122 2841
	 5180 2828 5238 2882 5296 2922 5354 2976 5412 2993 5471 3026
	 5529 3099 5587 3150 5645 3204 5703 3245 5761 3286 5819 3321
	 5877 3356 5936 3360 5994 3359 6052 3381 6110 3394 6168 3391
	 6226 3428 6284 3446 6342 3448 6401 3486 6459 3513 6517 3531
	 6575 3585 6633 3627 6691 3675 6749 3715 6807 3761 6866 3810
	 6924 3844 6982 3896 7040 3980 7098 3982 7156 3987 7214 3992
	 7272 4043 7331 4072 7389 4099 7447 4085 7505 4110 7563 4110
	 7621 4142 7679 4162 7737 4162 7796 4192 7854 4229 7912 4287
	 7970 4290 8028 4341 8086 4317 8144 4376 8202 4384 8261 4418
	 8319 4406 8377 4415 8435 4424 8493 4443 8551 4427 8609 4470
	 8667 4464 8726 4444 8784 4450 8842 4491 8900 4479 8958 4508
	 9016 4479 9074 4505 9132 4488 9191 4529 9249 4499 9307 4527
	 9365 4502 9423 4520 9481 4505 9539 4553 9597 4494 9656 4531
	 9714 4506 9772 4551 9830 4518 9888 4772
2 1 2 1 -1 -1 10 0 -1     3.000 0 1 0 0 0 130
	 2448 5645 2448 5645 2506 4663 2564 4614 2622 4516 2681 4462
	 2739 4358 2797 4270 2855 4206 2913 4127 2971 4068 3029 3916
	 3087 3978 3146 3926 3204 3805 3262 3788 3320 3700 3378 3811
	 3436 3660 3494 3679 3552 3646 3611 3562 3669 3676 3727 3667
	 3785 3673 3843 3609 3901 3697 3959 3638 4017 3749 4076 3804
	 4134 3817 4192 3760 4250 3807 4308 3892 4366 3910 4424 3979
	 4482 3999 4541 4104 4599 4150 4657 4048 4715 4115 4773 4091
	 4831 4127 4889 4113 4947 4138 5006 4108 5064 4123 5122 4170
	 5180 4243 5238 4209 5296 4233 5354 4253 5412 4370 5471 4387
	 5529 4488 5587 4441 5645 4539 5703 4563 5761 4618 5819 4653
	 5877 4626 5936 4673 5994 4700 6052 4686 6110 4791 6168 4746
	 6226 4867 6284 4759 6342 4849 6401 4812 6459 4827 6517 4900
	 6575 4960 6633 4932 6691 4997 6749 5029 6807 5020 6866 5131
	 6924 5191 6982 5172 7040 5214 7098 5294 7156 5328 7214 5385
	 7272 5403 7331 5367 7389 5374 7447 5450 7505 5469 7563 5423
	 7621 5514 7679 5548 7737 5449 7796 5624 7854 5636 7912 5589
	 7970 5638 8028 5635 8086 5773 8144 5791 8202 5797 8261 5846
	 8319 5759 8377 5873 8435 5890 8493 5915 8551 5952 8609 5910
	 8667 6002 8726 5948 8784 6028 8842 6009 8900 5976 8958 6057
	 9016 6015 9074 6077 9132 6033 9191 6130 9249 6181 9307 6233
	 9365 6214 9423 6280 9481 6267 9539 6289 9597 6302 9656 6278
	 9714 6320 9772 6287 9830 6319 9888 6990
2 1 0 1 -1 -1 10 0 -1     0.000 0 0 0 0 0 2
	 2448 7370 2343 7370
2 1 0 1 -1 -1 10 0 -1     0.000 0 0 0 0 0 2
	 9888 7370 9993 7370
4 2 -1 0 -1 0 10.000  0.000 4 125.000 225.000 2268 7432 -60\001
2 1 0 1 -1 -1 10 0 -1     0.000 0 0 0 0 0 2
	 2448 6616 2343 6616
2 1 0 1 -1 -1 10 0 -1     0.000 0 0 0 0 0 2
	 9888 6616 9993 6616
4 2 -1 0 -1 0 10.000  0.000 4 125.000 225.000 2268 6678 -50\001
2 1 0 1 -1 -1 10 0 -1     0.000 0 0 0 0 0 2
	 2448 5861 2343 5861
2 1 0 1 -1 -1 10 0 -1     0.000 0 0 0 0 0 2
	 9888 5861 9993 5861
4 2 -1 0 -1 0 10.000  0.000 4 125.000 225.000 2268 5923 -40\001
2 1 0 1 -1 -1 10 0 -1     0.000 0 0 0 0 0 2
	 2448 5107 2343 5107
2 1 0 1 -1 -1 10 0 -1     0.000 0 0 0 0 0 2
	 9888 5107 9993 5107
4 2 -1 0 -1 0 10.000  0.000 4 125.000 225.000 2268 5169 -30\001
2 1 0 1 -1 -1 10 0 -1     0.000 0 0 0 0 0 2
	 2448 4353 2343 4353
2 1 0 1 -1 -1 10 0 -1     0.000 0 0 0 0 0 2
	 9888 4353 9993 4353
4 2 -1 0 -1 0 10.000  0.000 4 125.000 225.000 2268 4415 -20\001
2 1 0 1 -1 -1 10 0 -1     0.000 0 0 0 0 0 2
	 2448 3599 2343 3599
2 1 0 1 -1 -1 10 0 -1     0.000 0 0 0 0 0 2
	 9888 3599 9993 3599
4 2 -1 0 -1 0 10.000  0.000 4 125.000 225.000 2268 3661 -10\001
2 1 0 1 -1 -1 10 0 -1     0.000 0 0 0 0 0 2
	 2448 2844 2343 2844
2 1 0 1 -1 -1 10 0 -1     0.000 0 0 0 0 0 2
	 9888 2844 9993 2844
4 2 -1 0 -1 0 10.000  0.000 4 125.000 75.000 2268 2906 0\001
2 1 0 1 -1 -1 10 0 -1     0.000 0 0 0 0 0 2
	 2448 2090 2343 2090
2 1 0 1 -1 -1 10 0 -1     0.000 0 0 0 0 0 2
	 9888 2090 9993 2090
4 2 -1 0 -1 0 10.000  0.000 4 125.000 150.000 2268 2152 10\001
2 1 0 1 -1 -1 10 0 -1     0.000 0 0 0 0 0 2
	 2448 7370 2448 7475
2 1 0 1 -1 -1 10 0 -1     0.000 0 0 0 0 0 2
	 2448 2090 2448 1985
4 1 -1 0 -1 0 10.000  0.000 4 125.000 75.000 2448 7662 0\001
2 1 0 1 -1 -1 10 0 -1     0.000 0 0 0 0 0 2
	 3936 7370 3936 7475
2 1 0 1 -1 -1 10 0 -1     0.000 0 0 0 0 0 2
	 3936 2090 3936 1985
4 1 -1 0 -1 0 10.000  0.000 4 125.000 225.000 3936 7662 0.2\001
2 1 0 1 -1 -1 10 0 -1     0.000 0 0 0 0 0 2
	 5424 7370 5424 7475
2 1 0 1 -1 -1 10 0 -1     0.000 0 0 0 0 0 2
	 5424 2090 5424 1985
4 1 -1 0 -1 0 10.000  0.000 4 125.000 225.000 5424 7662 0.4\001
2 1 0 1 -1 -1 10 0 -1     0.000 0 0 0 0 0 2
	 6912 7370 6912 7475
2 1 0 1 -1 -1 10 0 -1     0.000 0 0 0 0 0 2
	 6912 2090 6912 1985
4 1 -1 0 -1 0 10.000  0.000 4 125.000 225.000 6912 7662 0.6\001
2 1 0 1 -1 -1 10 0 -1     0.000 0 0 0 0 0 2
	 8400 7370 8400 7475
2 1 0 1 -1 -1 10 0 -1     0.000 0 0 0 0 0 2
	 8400 2090 8400 1985
4 1 -1 0 -1 0 10.000  0.000 4 125.000 225.000 8400 7662 0.8\001
2 1 0 1 -1 -1 10 0 -1     0.000 0 0 0 0 0 2
	 9888 7370 9888 7475
2 1 0 1 -1 -1 10 0 -1     0.000 0 0 0 0 0 2
	 9888 2090 9888 1985
4 1 -1 0 -1 0 10.000  0.000 4 125.000 75.000 9888 7662 1\001
2 1 0 1 -1 -1 10 0 -1     0.000 0 0 0 0 0 5
	 2448 2090 2448 7370 9888 7370 9888 2090 2448 2090
