Experiment all_results for
 datafile = ../data/tsdlr_9010/number-of-daily-births-in-quebec.mat

 Running experiment:
description = 2016-08-27-experiment-tsd-cv-bic-003,
data_dir = ../data/tsdlr_9010/,
max_depth = 3,
random_order = False,
k = 1,
debug = False,
local_computation = True,
n_rand = 1,
sd = 2,
jitter_sd = 0.1,
max_jobs = 5000,
verbose = True,
make_predictions = True,
skip_complete = True,
results_dir = ../mak-results/2016-08-27-experiment-tsd-cv-bic-003/,
iters = 100,
base_kernels = SE,Per,Lin,Const,Noise,
additive_form = False,
mean = ff.MeanZero(),
kernel = ff.NoiseKernel(),
lik = ff.LikGauss(sf=-np.Inf),
verbose_results = False,
random_seed = 46,
period_heuristic = 3,
max_period_heuristic = 5,
subset = True,
subset_size = 250,
full_iters = 10,
bundle_size = 2000,
search_operators = [('A', ('+', 'A', 'B'), {'A': 'kernel', 'B': 'base'}), ('A', ('*', 'A', 'B'), {'A': 'kernel', 'B': 'base-not-const'}), ('A', ('*-const', 'A', 'B'), {'A': 'kernel', 'B': 'base-not-const'}), ('A', 'B', {'A': 'kernel', 'B': 'base'}), ('A', ('None',), {'A': 'kernel'})],
score = bic,
period_heuristic_type = min,
stopping_criteria = ['no_improvement'],
improvement_tolerance = 0.1,
job_time = 01:30:00,
crossval = True,
 


%%%%% Level 0 %%%%%

GPModel(mean=MeanZero(), kernel=SumKernel(operands=[NoiseKernel(sf=3.6977024413), LinearKernel(dimension=0, location=2096.08360108, sf=0.432579644566)]), likelihood=LikGauss(sf=-inf), nll=4574.52279043, ndata=893)

%%%%% Level 1 %%%%%

GPModel(mean=MeanZero(), kernel=SumKernel(operands=[NoiseKernel(sf=3.68006409757), SqExpKernel(dimension=0, lengthscale=2.06430375124, sf=5.5382063339)]), likelihood=LikGauss(sf=-inf), nll=4565.18197242, ndata=893)

%%%%% Level 2 %%%%%

GPModel(mean=MeanZero(), kernel=ProductKernel(operands=[SumKernel(operands=[ConstKernel(sf=3.03206121582), PeriodicKernel(dimension=0, lengthscale=2.77769134496, period=-3.95471817401, sf=-0.889253256316)]), SumKernel(operands=[NoiseKernel(sf=0.576924271824), SqExpKernel(dimension=0, lengthscale=2.73290878956, sf=5.22522516364)])]), likelihood=LikGauss(sf=-inf), nll=4301.44685581, ndata=893)
