Experiment all_results for
 datafile = ../data/tsdlr_9010/02-solar.mat

 Running experiment:
description = 2016-08-27-experiment-tsd-bic-004,
data_dir = ../data/tsdlr_9010/,
max_depth = 3,
random_order = False,
k = 1,
debug = False,
local_computation = True,
n_rand = 9,
sd = 2,
jitter_sd = 0.1,
max_jobs = 5000,
verbose = True,
make_predictions = True,
skip_complete = True,
results_dir = ../mak-results/2016-08-27-experiment-tsd-bic-004/,
iters = 100,
base_kernels = SE,Per,Lin,Const,Noise,
additive_form = False,
mean = ff.MeanZero(),
kernel = ff.NoiseKernel(),
lik = ff.LikGauss(sf=-np.Inf),
verbose_results = False,
random_seed = 11,
period_heuristic = 3,
max_period_heuristic = 5,
subset = True,
subset_size = 250,
full_iters = 10,
bundle_size = 2000,
search_operators = [('A', ('+', 'A', 'B'), {'A': 'kernel', 'B': 'base'}), ('A', ('*', 'A', 'B'), {'A': 'kernel', 'B': 'base-not-const'}), ('A', ('*-const', 'A', 'B'), {'A': 'kernel', 'B': 'base-not-const'}), ('A', 'B', {'A': 'kernel', 'B': 'base'}), ('A', ('None',), {'A': 'kernel'})],
score = bic,
period_heuristic_type = min,
stopping_criteria = ['no_improvement'],
improvement_tolerance = 0.1,
job_time = 01:30:00,
crossval = False,
 


%%%%% Level 0 %%%%%

GPModel(mean=MeanZero(), kernel=SumKernel(operands=[NoiseKernel(sf=-1.56277908728), SqExpKernel(dimension=0, lengthscale=6.22360461671, sf=7.03492404207)]), likelihood=LikGauss(sf=-inf), nll=-12.7233857765, ndata=361)

%%%%% Level 1 %%%%%

GPModel(mean=MeanZero(), kernel=SumKernel(operands=[NoiseKernel(sf=-1.72153536124), ConstKernel(sf=7.21117860293), SqExpKernel(dimension=0, lengthscale=3.16037041718, sf=-1.15824292697)]), likelihood=LikGauss(sf=-inf), nll=-70.0220967015, ndata=361)

%%%%% Level 2 %%%%%

GPModel(mean=MeanZero(), kernel=SumKernel(operands=[NoiseKernel(sf=-2.80273745864), ConstKernel(sf=7.21208626045), SqExpKernel(dimension=0, lengthscale=0.694086732092, sf=-1.63344189327), SqExpKernel(dimension=0, lengthscale=3.48748135405, sf=-1.14738863964)]), likelihood=LikGauss(sf=-inf), nll=-245.655621798, ndata=361)
