Experiment all_results for
 datafile = ../data/tsdlr_9010/monthly-production-of-sulphuric-.mat

 Running experiment:
description = 2016-08-27-experiment-tsd-cv-bic-003,
data_dir = ../data/tsdlr_9010/,
max_depth = 3,
random_order = False,
k = 1,
debug = False,
local_computation = True,
n_rand = 1,
sd = 2,
jitter_sd = 0.1,
max_jobs = 5000,
verbose = True,
make_predictions = True,
skip_complete = True,
results_dir = ../mak-results/2016-08-27-experiment-tsd-cv-bic-003/,
iters = 100,
base_kernels = SE,Per,Lin,Const,Noise,
additive_form = False,
mean = ff.MeanZero(),
kernel = ff.NoiseKernel(),
lik = ff.LikGauss(sf=-np.Inf),
verbose_results = False,
random_seed = 52,
period_heuristic = 3,
max_period_heuristic = 5,
subset = True,
subset_size = 250,
full_iters = 10,
bundle_size = 2000,
search_operators = [('A', ('+', 'A', 'B'), {'A': 'kernel', 'B': 'base'}), ('A', ('*', 'A', 'B'), {'A': 'kernel', 'B': 'base-not-const'}), ('A', ('*-const', 'A', 'B'), {'A': 'kernel', 'B': 'base-not-const'}), ('A', 'B', {'A': 'kernel', 'B': 'base'}), ('A', ('None',), {'A': 'kernel'})],
score = bic,
period_heuristic_type = min,
stopping_criteria = ['no_improvement'],
improvement_tolerance = 0.1,
job_time = 01:30:00,
crossval = True,
 


%%%%% Level 0 %%%%%

GPModel(mean=MeanZero(), kernel=SumKernel(operands=[NoiseKernel(sf=3.27974032838), SqExpKernel(dimension=0, lengthscale=2.17301987887, sf=4.61940369464)]), likelihood=LikGauss(sf=-inf), nll=1967.46782527, ndata=415)

%%%%% Level 1 %%%%%

GPModel(mean=MeanZero(), kernel=SumKernel(operands=[NoiseKernel(sf=2.44071393723), SqExpKernel(dimension=0, lengthscale=-1.83597761574, sf=3.18003313967), SqExpKernel(dimension=0, lengthscale=3.68067336952, sf=5.74633846474)]), likelihood=LikGauss(sf=-inf), nll=1809.7901612, ndata=415)

%%%%% Level 2 %%%%%

GPModel(mean=MeanZero(), kernel=SumKernel(operands=[SqExpKernel(dimension=0, lengthscale=3.09138076548, sf=4.5880094081), ProductKernel(operands=[SumKernel(operands=[ConstKernel(sf=-1.20586730013), LinearKernel(dimension=0, location=1943.78865676, sf=-1.28176767015)]), SumKernel(operands=[NoiseKernel(sf=0.299044462931), SqExpKernel(dimension=0, lengthscale=-1.87265175999, sf=1.07504353236)])])]), likelihood=LikGauss(sf=-inf), nll=1776.89476901, ndata=415)
