dataset method parms inst nll bic smse sll attr
01-airline bic-nocv 08 129 507.047311565 1052.97312236 0.0643309924311 177.921753438 1
01-airline bic-nocv 08 129 513.64693075 1066.17236073 1.07820748455 184.521372623 1
01-airline bic-nocv 08 129 522.846387833 1084.5712749 0.0313443655587 193.720829706 1
01-airline bic-nocv 08 129 535.629261603 1110.13702244 0.102424980544 206.503703476 1
01-airline   bic-cv 08 129 505.940345481 1050.7591902 0.212274519767 176.814787354 1
01-airline   bic-cv 08 129 517.550025292 1073.97854982 0.0913256029365 188.424467165 1
01-airline   bic-cv 07 129 580.619163336 1195.2570135 0.0646291348797 251.493605209 1
01-airline   bic-cv 08 129 513.578382654 1066.03526454 0.0283424037132 184.452824527 1
02-solar bic-nocv 08 361 -254.20310249 -461.295181313 4.5508762283 -2443.7978206 1
02-solar bic-nocv 06 361 -245.653698765 -455.97412978 1.48624762292 -2435.24841688 1
02-solar bic-nocv 07 361 -95.4523922951 -149.682638882 1.97910712353 -2285.04711041 1
02-solar bic-nocv 06 361 -245.655621798 -455.977975846 1.49504608667 -2435.25033991 1
02-solar   bic-cv 07 361 -246.025525945 -450.828906182 1.26629466552 -2435.62024406 1
02-solar   bic-cv 07 361 -246.025362732 -450.828579756 1.27186546954 -2435.62008084 1
02-solar   bic-cv 05 361 -85.6835727159 -141.92275564 1.96155984958 -2275.27829083 1
02-solar   bic-cv 06 361 -245.654118024 -455.974968298 1.48912901674 -2435.24883614 1
03-mauna bic-nocv 08 490 194.180391616 437.916026361 0.0130568442313 -1712.2416986 1
03-mauna bic-nocv 08 490 220.377877708 490.310998545 2.25014123477 -1686.0442125 1
03-mauna bic-nocv 04 490 1075.11553258 2175.00868672 0.0234211135542 -831.306557631 1
03-mauna bic-nocv 06 490 341.560420627 720.287273601 0.218611989838 -1564.86166958 1
03-mauna   bic-cv 08 490 146.990513993 343.536271115 0.00820427994353 -1759.43157622 1
03-mauna   bic-cv 08 490 159.044813177 367.644869483 0.0117328455608 -1747.37727703 1
03-mauna   bic-cv 08 490 161.222707516 372.000658161 0.00438347887974 -1745.1993827 1
03-mauna   bic-cv 08 490 181.217254664 411.989752457 0.00618594767671 -1725.20483555 1
04-wheat bic-nocv 06 333 1360.49052463 2755.8299042 4.0868878979 -632.388997393 1
04-wheat bic-nocv 06 333 1360.41838373 2755.6856224 3.8131221603 -632.461138293 1
04-wheat bic-nocv 06 333 1364.21728265 2763.28342024 0.540996899113 -628.662239373 1
04-wheat bic-nocv 07 333 1367.01206281 2774.68112305 1.29807696789 -625.867459213 1
04-wheat   bic-cv 06 333 1360.44282796 2755.73451086 3.70793331377 -632.436694063 1
04-wheat   bic-cv 06 333 1360.40527391 2755.65940276 3.76742133798 -632.474248113 1
04-wheat   bic-cv 05 333 1375.6339094 2780.30853125 0.520457809337 -617.245612623 1
04-wheat   bic-cv 06 333 1360.5936769 2756.03620874 4.055100986 -632.285845123 1
05-min-temp bic-nocv 07 899 2178.40597309 4404.42092742 0.820203610963 30.6153426653 1
05-min-temp bic-nocv 07 899 2194.55664202 4436.72226528 0.460746845724 46.7660115953 1
05-min-temp bic-nocv 06 899 2210.44246653 4461.69263127 0.460765483252 62.6518361053 1
05-min-temp bic-nocv 06 899 2180.19480062 4401.19729945 0.803688918906 32.4041701953 1
05-min-temp   bic-cv 08 899 2152.29695223 4359.00416874 0.441234240837 4.50632180532 1
05-min-temp   bic-cv 08 899 2150.14072013 4354.69170454 0.442962213012 2.35008970532 1
05-min-temp   bic-cv 06 899 2212.37120033 4465.55009887 0.453488353075 64.5805699053 1
05-min-temp   bic-cv 07 899 2177.55408367 4402.71714858 0.444905415869 29.7634532453 1
06-internet bic-nocv 07 909 8988.12531639 18023.9370484 0.630106403102 10453.72494 1
06-internet bic-nocv 06 909 9129.73253281 18300.3391362 0.149628837444 10595.3321564 1
06-internet bic-nocv 03 909 9291.29468173 18603.0263987 5.41431415884 10756.8943053 1
06-internet bic-nocv 06 909 9136.673568 18314.2212066 2.91997559244 10602.2731916 1
06-internet   bic-cv 08 909 9035.70463186 18125.9080245 0.276499667577 10501.3042554 1
06-internet   bic-cv 08 909 8870.59387179 17795.6865043 0.175425707649 10336.1934954 1
06-internet   bic-cv 08 909 9086.74328899 18227.9853387 4.09545889945 10552.3429126 1
06-internet   bic-cv 07 909 9065.84104371 18179.3685031 1.09651975733 10531.4406673 1
07-calls bic-nocv 07 162 802.607905054 1640.82898445 0.262070861518 352.386130102 1
07-calls bic-nocv 07 162 802.633472089 1640.88011852 0.289501156065 352.411697137 1
07-calls bic-nocv 06 162 825.108626056 1680.74283012 0.021257614144 374.886851104 1
07-calls bic-nocv 07 162 800.241164636 1636.09550362 3.34988635431 350.019389684 1
07-calls   bic-cv 07 162 802.613256978 1640.8396883 0.24958649759 352.391482026 1
07-calls   bic-cv 07 162 802.616995845 1640.84716604 0.248802585213 352.395220893 1
07-calls   bic-cv 06 162 825.675026725 1681.87563146 1.81505946838 375.453251773 1
07-calls   bic-cv 08 162 796.481699592 1633.66416987 2.66895996512 346.25992464 1
08-radio bic-nocv 08 216 230.058926618 503.120080497 0.0285905949824 -432.379926107 1
08-radio bic-nocv 07 216 227.841622478 493.31019381 0.516512216179 -434.597230247 1
08-radio bic-nocv 05 216 293.725997416 614.32838687 0.691063274995 -368.712855309 1
08-radio bic-nocv 08 216 230.060109408 503.122446077 0.0285922537248 -432.378743317 1
08-radio   bic-cv 08 216 235.696201288 514.394629837 0.327056054271 -426.742651437 1
08-radio   bic-cv 07 216 228.117812635 493.862574124 0.472671103306 -434.32104009 1
08-radio   bic-cv 08 216 252.301560866 547.605348993 0.277578560803 -410.137291859 1
08-radio   bic-cv 07 216 240.978280398 519.58350965 0.326234352111 -421.460572327 1
09-gas bic-nocv 08 428 3527.78594824 7104.04488204 31.7505711862 1922.49025253 1
09-gas bic-nocv 08 428 3456.08051659 6960.63401874 3.45256965771 1850.78482088 1
09-gas bic-nocv 07 428 3823.31743788 7689.04873813 1.42124473427 2218.02174217 1
09-gas bic-nocv 08 428 3482.68802751 7013.84904058 2.82592281409 1877.3923318 1
09-gas   bic-cv 08 428 3591.69761528 7231.86821612 0.180716108569 1986.40191957 1
09-gas   bic-cv 08 428 3485.23417853 7018.94134262 2.27262953775 1879.93848282 1
09-gas   bic-cv 06 428 3700.41533064 7437.18540045 7.29351401818 2095.11963493 1
09-gas   bic-cv 07 428 3567.49954974 7177.41296185 17.2415110657 1962.20385403 1
10-sulphuric bic-nocv 08 415 1757.98218258 3564.19059332 1.17483637244 214.244993179 1
10-sulphuric bic-nocv 07 415 1767.7640586 3577.72606684 0.708617515406 224.026869199 1
10-sulphuric bic-nocv 07 415 1778.98955012 3600.17704988 0.566600173407 235.252360719 1
10-sulphuric bic-nocv 06 415 1775.37428142 3586.91823396 1.35165070057 231.637092019 1
10-sulphuric   bic-cv 06 415 1775.82632441 3587.82231994 1.21208765311 232.089135009 1
10-sulphuric   bic-cv 07 415 1764.90038276 3571.99871516 0.750802468511 221.163193359 1
10-sulphuric   bic-cv 07 415 1776.89476901 3595.98748766 1.69447236945 233.157579609 1
10-sulphuric   bic-cv 07 415 1761.32515407 3564.84825778 0.756097547206 217.587964669 1
11-unemploy bic-nocv 09 367 2071.96547317 4197.07920297 2.26872313876 751.892311218 1
11-unemploy bic-nocv 07 367 2206.82363402 4454.98480098 2.00918606165 886.750472068 1
11-unemploy bic-nocv 08 367 2248.74455619 4544.73200716 0.229355895374 928.671394238 1
11-unemploy bic-nocv 05 367 2212.15020345 4453.82721614 0.821009098507 892.077041498 1
11-unemploy   bic-cv 07 367 2001.2279107 4043.79335434 7.38317564417 681.154748748 1
11-unemploy   bic-cv 08 367 1967.69917077 3982.64123632 0.241056196185 647.626008818 1
11-unemploy   bic-cv 06 367 2212.47085904 4460.37388917 0.767880219161 892.397697088 1
11-unemploy   bic-cv 07 367 2143.26864414 4327.87482122 4.86585804859 823.195482188 1
12-quebec bic-nocv 08 893 4183.37772641 8421.11214547 0.491879430359 1738.53308365 1
12-quebec bic-nocv 07 893 4531.40150717 9110.36512041 1.13681618032 2086.55686441 1
12-quebec bic-nocv 04 893 4542.58450026 9112.34734684 1.17668387045 2097.7398575 1
12-quebec bic-nocv 08 893 4150.32570688 8355.00810641 0.421601640038 1705.48106412 1
12-quebec   bic-cv 08 893 4382.79525595 8819.94720455 0.493769015715 1937.95061319 1
12-quebec   bic-cv 06 893 4174.26402546 8389.29557041 0.429483356508 1729.4193827 1
12-quebec   bic-cv 08 893 4527.07168631 9108.50006527 1.04417846636 2082.22704355 1
12-quebec   bic-cv 07 893 4172.03681527 8391.63573661 0.419595540421 1727.19217251 1
13-wages bic-nocv 07 661 563.874612725 1173.20550233 26.6824022245 -3845.15264168 1
13-wages bic-nocv 07 661 573.710889058 1192.87805499 31.9576156154 -3835.31636535 1
13-wages bic-nocv 07 661 565.005456023 1175.46718892 28.6929009991 -3844.02179838 1
13-wages bic-nocv 07 661 563.723326899 1172.90293068 31.043992464 -3845.30392751 1
13-wages   bic-cv 07 661 564.116175169 1173.68862722 26.3127765721 -3844.91107924 1
13-wages   bic-cv 07 661 576.569184871 1198.59464662 19.8659957922 -3832.45806953 1
13-wages   bic-cv 06 661 582.222780623 1203.40808429 27.9176453979 -3826.80447378 1
13-wages   bic-cv 07 661 565.119530307 1175.69533749 25.3662027819 -3843.9077241 1
14-quebec-xl bic-nocv 08 4602 20581.4168181 41230.3076064 0.243669429829 -21640.8540173 5
14-quebec-xl bic-nocv 07 4602 20633.3976403 41325.8350045 0.260091252672 -21588.8731951 5
14-quebec-xl bic-nocv 06 4602 20655.8605737 41362.326625 0.259578749219 -21566.4102617 5
14-quebec-xl bic-nocv 07 4602 20642.2858738 41343.6114715 0.258711753335 -21579.9849616 5
14-quebec-xl   bic-cv 08 4602 20568.962388 41205.3987462 0.241602572767 -21653.3084474 5
14-quebec-xl   bic-cv 07 4602 20631.0649012 41321.1695263 0.259799789925 -21591.2059342 5
14-quebec-xl   bic-cv 07 4602 20644.303947 41347.6476179 0.258561436597 -21577.9668884 5
14-quebec-xl   bic-cv 06 4602 20638.623693 41327.8528636 0.26451990991 -21583.6471424 5
15-concrete bic-nocv 07 927 3115.8679437 6279.55956236 0.0587547418961 -3214.99298298 9
15-concrete bic-nocv 08 927 3237.24102329 6529.1376751 0.10571937985 -3093.61990339 9
15-concrete bic-nocv 07 927 3103.49774352 6254.819162 0.0574259531436 -3227.36318316 9
15-concrete bic-nocv 07 927 3108.60305041 6265.02977578 0.0582024932177 -3222.25787627 9
15-concrete   bic-cv 07 927 3155.07877564 6357.98122624 0.0934380392261 -3175.78215104 9
15-concrete   bic-cv 07 927 3102.65372336 6253.13112168 0.0580347319621 -3228.20720332 9
15-concrete   bic-cv 08 927 3201.71522067 6458.08606986 0.109807986539 -3129.14570601 9
15-concrete   bic-cv 07 927 3101.13018375 6250.08404246 0.0531731732661 -3229.73074293 9
16-parkinsons bic-nocv 07 5287 -29312.1617586 -58564.3124734 7.67316275078e-11 -52646.4359934 21
16-parkinsons bic-nocv 07 5287 -29040.4462921 -58020.8815404 2.73796387442e-10 -52374.7205269 21
16-parkinsons bic-nocv 06 5287 -26487.6846671 -52923.9312967 3.83980258535e-10 -49821.9589019 21
16-parkinsons   bic-cv 07 5287 -29335.5617451 -58611.1124464 6.67689126716e-11 -52669.8359799 21
16-parkinsons   bic-cv 07 5287 -29566.8895633 -59073.7680828 6.64335102248e-11 -52901.1637981 21
16-parkinsons   bic-cv 07 5287 -29513.4436419 -58966.87624 6.61474576754e-11 -52847.7178767 21
17-winewhite bic-nocv 06 4408 4865.64728163 9781.64162136 0.710959995225 -15796.0306192 12
17-winewhite bic-nocv 06 4408 4863.66242359 9777.67190528 0.713110487865 -15798.0154773 12
17-winewhite bic-nocv 07 4408 4860.91965364 9780.57754174 0.71011211453 -15800.7582472 12
17-winewhite   bic-cv 06 4408 4863.46047931 9777.26801672 0.704750673512 -15798.2174215 12
17-winewhite   bic-cv 06 4408 4860.11337176 9770.57380162 0.703771879702 -15801.5645291 12
17-winewhite   bic-cv 06 4408 4860.00899951 9770.36505712 0.707612042444 -15801.6689013 12

